<?xml version="1.0" encoding="utf-8"?>
<!DOCTYPE eagle SYSTEM "eagle.dtd">
<eagle version="7.6.0">
<drawing>
<settings>
<setting alwaysvectorfont="yes"/>
<setting verticaltext="up"/>
</settings>
<grid distance="0.025" unitdist="inch" unit="inch" style="dots" multiple="1" display="yes" altdistance="0.001" altunitdist="inch" altunit="inch"/>
<layers>
<layer number="1" name="Top" color="4" fill="1" visible="yes" active="yes"/>
<layer number="16" name="Bottom" color="1" fill="1" visible="yes" active="yes"/>
<layer number="17" name="Pads" color="2" fill="1" visible="yes" active="yes"/>
<layer number="18" name="Vias" color="2" fill="1" visible="yes" active="yes"/>
<layer number="19" name="Unrouted" color="6" fill="1" visible="yes" active="yes"/>
<layer number="20" name="Dimension" color="25" fill="1" visible="yes" active="yes"/>
<layer number="21" name="tPlace" color="7" fill="1" visible="yes" active="yes"/>
<layer number="22" name="bPlace" color="7" fill="1" visible="yes" active="yes"/>
<layer number="23" name="tOrigins" color="15" fill="1" visible="yes" active="yes"/>
<layer number="24" name="bOrigins" color="15" fill="1" visible="yes" active="yes"/>
<layer number="25" name="tNames" color="7" fill="1" visible="yes" active="yes"/>
<layer number="26" name="bNames" color="7" fill="1" visible="yes" active="yes"/>
<layer number="27" name="tValues" color="7" fill="1" visible="no" active="yes"/>
<layer number="28" name="bValues" color="7" fill="1" visible="no" active="yes"/>
<layer number="29" name="tStop" color="7" fill="3" visible="no" active="yes"/>
<layer number="30" name="bStop" color="7" fill="6" visible="no" active="yes"/>
<layer number="31" name="tCream" color="7" fill="4" visible="no" active="yes"/>
<layer number="32" name="bCream" color="7" fill="5" visible="no" active="yes"/>
<layer number="33" name="tFinish" color="6" fill="3" visible="no" active="yes"/>
<layer number="34" name="bFinish" color="6" fill="6" visible="no" active="yes"/>
<layer number="35" name="tGlue" color="7" fill="4" visible="no" active="yes"/>
<layer number="36" name="bGlue" color="7" fill="5" visible="no" active="yes"/>
<layer number="37" name="tTest" color="7" fill="1" visible="no" active="yes"/>
<layer number="38" name="bTest" color="7" fill="1" visible="no" active="yes"/>
<layer number="39" name="tKeepout" color="4" fill="11" visible="yes" active="yes"/>
<layer number="40" name="bKeepout" color="1" fill="11" visible="yes" active="yes"/>
<layer number="41" name="tRestrict" color="4" fill="10" visible="yes" active="yes"/>
<layer number="42" name="bRestrict" color="1" fill="10" visible="yes" active="yes"/>
<layer number="43" name="vRestrict" color="2" fill="10" visible="yes" active="yes"/>
<layer number="44" name="Drills" color="7" fill="1" visible="no" active="yes"/>
<layer number="45" name="Holes" color="7" fill="1" visible="yes" active="yes"/>
<layer number="46" name="Milling" color="3" fill="1" visible="no" active="yes"/>
<layer number="47" name="Measures" color="7" fill="1" visible="no" active="yes"/>
<layer number="48" name="Document" color="7" fill="1" visible="yes" active="yes"/>
<layer number="49" name="Reference" color="7" fill="1" visible="yes" active="yes"/>
<layer number="51" name="tDocu" color="7" fill="1" visible="yes" active="yes"/>
<layer number="52" name="bDocu" color="7" fill="1" visible="yes" active="yes"/>
<layer number="90" name="Modules" color="5" fill="1" visible="no" active="no"/>
<layer number="91" name="Nets" color="2" fill="1" visible="no" active="no"/>
<layer number="92" name="Busses" color="1" fill="1" visible="no" active="no"/>
<layer number="93" name="Pins" color="2" fill="1" visible="no" active="no"/>
<layer number="94" name="Symbols" color="4" fill="1" visible="no" active="no"/>
<layer number="95" name="Names" color="7" fill="1" visible="no" active="no"/>
<layer number="96" name="Values" color="7" fill="1" visible="no" active="no"/>
<layer number="97" name="Info" color="7" fill="1" visible="no" active="no"/>
<layer number="98" name="Guide" color="6" fill="1" visible="no" active="no"/>
<layer number="99" name="SpiceOrder" color="5" fill="1" visible="no" active="no"/>
<layer number="111" name="supress" color="63" fill="1" visible="yes" active="yes"/>
</layers>
<board>
<plain>
<wire x1="0" y1="0" x2="100" y2="0" width="0" layer="49"/>
<wire x1="100" y1="0" x2="100" y2="80" width="0" layer="49"/>
<wire x1="100" y1="80" x2="0" y2="80" width="0" layer="49"/>
<wire x1="0" y1="80" x2="0" y2="0" width="0" layer="49"/>
<wire x1="0.635" y1="0.635" x2="0.635" y2="18.415" width="0.254" layer="20"/>
<wire x1="0.635" y1="18.415" x2="44.45" y2="18.415" width="0.254" layer="20"/>
<wire x1="44.45" y1="18.415" x2="44.45" y2="0.635" width="0.254" layer="20"/>
<wire x1="44.45" y1="0.635" x2="0.635" y2="0.635" width="0.254" layer="20"/>
</plain>
<libraries>
<library name="rcl">
<description>&lt;b&gt;Resistors, Capacitors, Inductors&lt;/b&gt;&lt;p&gt;
Based on the previous libraries:
&lt;ul&gt;
&lt;li&gt;r.lbr
&lt;li&gt;cap.lbr 
&lt;li&gt;cap-fe.lbr
&lt;li&gt;captant.lbr
&lt;li&gt;polcap.lbr
&lt;li&gt;ipc-smd.lbr
&lt;/ul&gt;
All SMD packages are defined according to the IPC specifications and  CECC&lt;p&gt;
&lt;author&gt;Created by librarian@cadsoft.de&lt;/author&gt;&lt;p&gt;
&lt;p&gt;
for Electrolyt Capacitors see also :&lt;p&gt;
www.bccomponents.com &lt;p&gt;
www.panasonic.com&lt;p&gt;
www.kemet.com&lt;p&gt;
http://www.secc.co.jp/pdf/os_e/2004/e_os_all.pdf &lt;b&gt;(SANYO)&lt;/b&gt;
&lt;p&gt;
for trimmer refence see : &lt;u&gt;www.electrospec-inc.com/cross_references/trimpotcrossref.asp&lt;/u&gt;&lt;p&gt;

&lt;table border=0 cellspacing=0 cellpadding=0 width="100%" cellpaddding=0&gt;
&lt;tr valign="top"&gt;

&lt;! &lt;td width="10"&gt;&amp;nbsp;&lt;/td&gt;
&lt;td width="90%"&gt;

&lt;b&gt;&lt;font color="#0000FF" size="4"&gt;TRIM-POT CROSS REFERENCE&lt;/font&gt;&lt;/b&gt;
&lt;P&gt;
&lt;TABLE BORDER=0 CELLSPACING=1 CELLPADDING=2&gt;
  &lt;TR&gt;
    &lt;TD COLSPAN=8&gt;
      &lt;FONT SIZE=3 FACE=ARIAL&gt;&lt;B&gt;RECTANGULAR MULTI-TURN&lt;/B&gt;&lt;/FONT&gt;
    &lt;/TD&gt;
  &lt;/TR&gt;
  &lt;TR&gt;
    &lt;TD ALIGN=CENTER&gt;
      &lt;B&gt;
      &lt;FONT SIZE=3 FACE=ARIAL color="#FF0000"&gt;BOURNS&lt;/FONT&gt;
      &lt;/B&gt;
    &lt;/TD&gt;
    &lt;TD ALIGN=CENTER&gt;
      &lt;B&gt;
      &lt;FONT SIZE=3 FACE=ARIAL color="#FF0000"&gt;BI&amp;nbsp;TECH&lt;/FONT&gt;
      &lt;/B&gt;
    &lt;/TD&gt;
    &lt;TD ALIGN=CENTER&gt;
      &lt;B&gt;
      &lt;FONT SIZE=3 FACE=ARIAL color="#FF0000"&gt;DALE-VISHAY&lt;/FONT&gt;
      &lt;/B&gt;
    &lt;/TD&gt;
    &lt;TD ALIGN=CENTER&gt;
      &lt;B&gt;
      &lt;FONT SIZE=3 FACE=ARIAL color="#FF0000"&gt;PHILIPS/MEPCO&lt;/FONT&gt;
      &lt;/B&gt;
    &lt;/TD&gt;
    &lt;TD ALIGN=CENTER&gt;
      &lt;B&gt;
      &lt;FONT SIZE=3 FACE=ARIAL color="#FF0000"&gt;MURATA&lt;/FONT&gt;
      &lt;/B&gt;
    &lt;/TD&gt;
    &lt;TD ALIGN=CENTER&gt;
      &lt;B&gt;
      &lt;FONT SIZE=3 FACE=ARIAL color="#FF0000"&gt;PANASONIC&lt;/FONT&gt;
      &lt;/B&gt;
    &lt;/TD&gt;
    &lt;TD ALIGN=CENTER&gt;
      &lt;B&gt;
      &lt;FONT SIZE=3 FACE=ARIAL color="#FF0000"&gt;SPECTROL&lt;/FONT&gt;
      &lt;/B&gt;
    &lt;/TD&gt;
    &lt;TD ALIGN=CENTER&gt;
      &lt;B&gt;
      &lt;FONT SIZE=3 FACE=ARIAL color="#FF0000"&gt;MILSPEC&lt;/FONT&gt;
      &lt;/B&gt;
    &lt;/TD&gt;&lt;TD&gt;&amp;nbsp;&lt;/TD&gt;
  &lt;/TR&gt;
  &lt;TR&gt;
    &lt;TD BGCOLOR="#cccccc" ALIGN=CENTER&gt;&lt;FONT FACE=ARIAL SIZE=3 &gt;
      3005P&lt;BR&gt;
      3006P&lt;BR&gt;
      3006W&lt;BR&gt;
      3006Y&lt;BR&gt;
      3009P&lt;BR&gt;
      3009W&lt;BR&gt;
      3009Y&lt;BR&gt;
      3057J&lt;BR&gt;
      3057L&lt;BR&gt;
      3057P&lt;BR&gt;
      3057Y&lt;BR&gt;
      3059J&lt;BR&gt;
      3059L&lt;BR&gt;
      3059P&lt;BR&gt;
      3059Y&lt;BR&gt;&lt;/FONT&gt;
    &lt;/TD&gt;
    &lt;TD BGCOLOR="#cccccc" ALIGN=CENTER&gt;&lt;FONT FACE=ARIAL SIZE=3&gt;
      -&lt;BR&gt;
      89P&lt;BR&gt;
      89W&lt;BR&gt;
      89X&lt;BR&gt;
      89PH&lt;BR&gt;
      76P&lt;BR&gt;
      89XH&lt;BR&gt;
      78SLT&lt;BR&gt;
      78L&amp;nbsp;ALT&lt;BR&gt;
      56P&amp;nbsp;ALT&lt;BR&gt;
      78P&amp;nbsp;ALT&lt;BR&gt;
      T8S&lt;BR&gt;
      78L&lt;BR&gt;
      56P&lt;BR&gt;
      78P&lt;BR&gt;&lt;/FONT&gt;
    &lt;/TD&gt;
    &lt;TD BGCOLOR="#cccccc" ALIGN=CENTER&gt;&lt;FONT FACE=ARIAL SIZE=3&gt;
      -&lt;BR&gt;
      T18/784&lt;BR&gt;
      783&lt;BR&gt;
      781&lt;BR&gt;
      -&lt;BR&gt;
      -&lt;BR&gt;
      -&lt;BR&gt;
      2199&lt;BR&gt;
      1697/1897&lt;BR&gt;
      1680/1880&lt;BR&gt;
      2187&lt;BR&gt;
      -&lt;BR&gt;
      -&lt;BR&gt;
      -&lt;BR&gt;
      -&lt;BR&gt;&lt;/FONT&gt;
    &lt;/TD&gt;
    &lt;TD BGCOLOR="#cccccc" ALIGN=CENTER&gt;&lt;FONT FACE=ARIAL SIZE=3&gt;
      -&lt;BR&gt;
      8035EKP/CT20/RJ-20P&lt;BR&gt;
      -&lt;BR&gt;
      RJ-20X&lt;BR&gt;
      -&lt;BR&gt;
      -&lt;BR&gt;
      -&lt;BR&gt;
      1211L&lt;BR&gt;
      8012EKQ&amp;nbsp;ALT&lt;BR&gt;
      8012EKR&amp;nbsp;ALT&lt;BR&gt;
      1211P&lt;BR&gt;
      8012EKJ&lt;BR&gt;
      8012EKL&lt;BR&gt;
      8012EKQ&lt;BR&gt;
      8012EKR&lt;BR&gt;&lt;/FONT&gt;
    &lt;/TD&gt;
    &lt;TD BGCOLOR="#cccccc" ALIGN=CENTER&gt;&lt;FONT FACE=ARIAL SIZE=3&gt;
      -&lt;BR&gt;
      2101P&lt;BR&gt;
      2101W&lt;BR&gt;
      2101Y&lt;BR&gt;
      -&lt;BR&gt;
      -&lt;BR&gt;
      -&lt;BR&gt;
      -&lt;BR&gt;
      -&lt;BR&gt;
      -&lt;BR&gt;
      -&lt;BR&gt;
      -&lt;BR&gt;
      2102L&lt;BR&gt;
      2102S&lt;BR&gt;
      2102Y&lt;BR&gt;&lt;/FONT&gt;
    &lt;/TD&gt;
    &lt;TD BGCOLOR="#cccccc" ALIGN=CENTER&gt;&lt;FONT FACE=ARIAL SIZE=3&gt;
      -&lt;BR&gt;
      EVMCOG&lt;BR&gt;
      -&lt;BR&gt;
      -&lt;BR&gt;
      -&lt;BR&gt;
      -&lt;BR&gt;
      -&lt;BR&gt;
      -&lt;BR&gt;
      -&lt;BR&gt;
      -&lt;BR&gt;
      -&lt;BR&gt;
      -&lt;BR&gt;
      -&lt;BR&gt;
      -&lt;BR&gt;
      -&lt;BR&gt;&lt;/FONT&gt;
    &lt;/TD&gt;
    &lt;TD BGCOLOR="#cccccc" ALIGN=CENTER&gt;&lt;FONT FACE=ARIAL SIZE=3&gt;
      -&lt;BR&gt;
      43P&lt;BR&gt;
      43W&lt;BR&gt;
      43Y&lt;BR&gt;
      -&lt;BR&gt;
      -&lt;BR&gt;
      -&lt;BR&gt;
      -&lt;BR&gt;
      40L&lt;BR&gt;
      40P&lt;BR&gt;
      40Y&lt;BR&gt;
      70Y-T602&lt;BR&gt;
      70L&lt;BR&gt;
      70P&lt;BR&gt;
      70Y&lt;BR&gt;&lt;/FONT&gt;
    &lt;/TD&gt;
    &lt;TD BGCOLOR="#cccccc" ALIGN=CENTER&gt;&lt;FONT FACE=ARIAL SIZE=3&gt;
      -&lt;BR&gt;
      -&lt;BR&gt;
      -&lt;BR&gt;
      -&lt;BR&gt;
      -&lt;BR&gt;
      -&lt;BR&gt;
      -&lt;BR&gt;
      -&lt;BR&gt;
      RT/RTR12&lt;BR&gt;
      RT/RTR12&lt;BR&gt;
      RT/RTR12&lt;BR&gt;
      -&lt;BR&gt;
      RJ/RJR12&lt;BR&gt;
      RJ/RJR12&lt;BR&gt;
      RJ/RJR12&lt;BR&gt;&lt;/FONT&gt;
    &lt;/TD&gt;
  &lt;/TR&gt;
  &lt;TR&gt;
    &lt;TD COLSPAN=8&gt;&amp;nbsp;
    &lt;/TD&gt;
  &lt;/TR&gt;
  &lt;TR&gt;
    &lt;TD COLSPAN=8&gt;
      &lt;FONT SIZE=4 FACE=ARIAL&gt;&lt;B&gt;SQUARE MULTI-TURN&lt;/B&gt;&lt;/FONT&gt;
    &lt;/TD&gt;
  &lt;/TR&gt;
  &lt;TR&gt;
   &lt;TD ALIGN=CENTER&gt;
      &lt;FONT SIZE=3 FACE=ARIAL&gt;&lt;B&gt;BOURN&lt;/B&gt;&lt;/FONT&gt;
    &lt;/TD&gt;
    &lt;TD ALIGN=CENTER&gt;
      &lt;FONT SIZE=3 FACE=ARIAL&gt;&lt;B&gt;BI&amp;nbsp;TECH&lt;/B&gt;&lt;/FONT&gt;
    &lt;/TD&gt;
    &lt;TD ALIGN=CENTER&gt;
      &lt;FONT SIZE=3 FACE=ARIAL&gt;&lt;B&gt;DALE-VISHAY&lt;/B&gt;&lt;/FONT&gt;
    &lt;/TD&gt;
    &lt;TD ALIGN=CENTER&gt;
      &lt;FONT SIZE=3 FACE=ARIAL&gt;&lt;B&gt;PHILIPS/MEPCO&lt;/B&gt;&lt;/FONT&gt;
    &lt;/TD&gt;
    &lt;TD ALIGN=CENTER&gt;
      &lt;FONT SIZE=3 FACE=ARIAL&gt;&lt;B&gt;MURATA&lt;/B&gt;&lt;/FONT&gt;
    &lt;/TD&gt;
    &lt;TD ALIGN=CENTER&gt;
      &lt;FONT SIZE=3 FACE=ARIAL&gt;&lt;B&gt;PANASONIC&lt;/B&gt;&lt;/FONT&gt;
    &lt;/TD&gt;
    &lt;TD ALIGN=CENTER&gt;
      &lt;FONT SIZE=3 FACE=ARIAL&gt;&lt;B&gt;SPECTROL&lt;/B&gt;&lt;/FONT&gt;
    &lt;/TD&gt;
    &lt;TD ALIGN=CENTER&gt;
      &lt;FONT SIZE=3 FACE=ARIAL&gt;&lt;B&gt;MILSPEC&lt;/B&gt;&lt;/FONT&gt;
    &lt;/TD&gt;
  &lt;/TR&gt;
  &lt;TR&gt;
    &lt;TD BGCOLOR="#cccccc" ALIGN=CENTER&gt;&lt;FONT FACE=ARIAL SIZE=3&gt;
      3250L&lt;BR&gt;
      3250P&lt;BR&gt;
      3250W&lt;BR&gt;
      3250X&lt;BR&gt;
      3252P&lt;BR&gt;
      3252W&lt;BR&gt;
      3252X&lt;BR&gt;
      3260P&lt;BR&gt;
      3260W&lt;BR&gt;
      3260X&lt;BR&gt;
      3262P&lt;BR&gt;
      3262W&lt;BR&gt;
      3262X&lt;BR&gt;
      3266P&lt;BR&gt;
      3266W&lt;BR&gt;
      3266X&lt;BR&gt;
      3290H&lt;BR&gt;
      3290P&lt;BR&gt;
      3290W&lt;BR&gt;
      3292P&lt;BR&gt;
      3292W&lt;BR&gt;
      3292X&lt;BR&gt;
      3296P&lt;BR&gt;
      3296W&lt;BR&gt;
      3296X&lt;BR&gt;
      3296Y&lt;BR&gt;
      3296Z&lt;BR&gt;
      3299P&lt;BR&gt;
      3299W&lt;BR&gt;
      3299X&lt;BR&gt;
      3299Y&lt;BR&gt;
      3299Z&lt;BR&gt;&lt;/FONT&gt;
    &lt;/TD&gt;
    &lt;TD BGCOLOR="#cccccc" ALIGN=CENTER&gt;&lt;FONT FACE=ARIAL SIZE=3&gt;
      -&lt;BR&gt;
      66P&amp;nbsp;ALT&lt;BR&gt;
      66W&amp;nbsp;ALT&lt;BR&gt;
      66X&amp;nbsp;ALT&lt;BR&gt;
      66P&amp;nbsp;ALT&lt;BR&gt;
      66W&amp;nbsp;ALT&lt;BR&gt;
      66X&amp;nbsp;ALT&lt;BR&gt;
      -&lt;BR&gt;
      64W&amp;nbsp;ALT&lt;BR&gt;
      -&lt;BR&gt;
      64P&amp;nbsp;ALT&lt;BR&gt;
      64W&amp;nbsp;ALT&lt;BR&gt;
      64X&amp;nbsp;ALT&lt;BR&gt;
      64P&lt;BR&gt;
      64W&lt;BR&gt;
      64X&lt;BR&gt;
      66X&amp;nbsp;ALT&lt;BR&gt;
      66P&amp;nbsp;ALT&lt;BR&gt;
      66W&amp;nbsp;ALT&lt;BR&gt;
      66P&lt;BR&gt;
      66W&lt;BR&gt;
      66X&lt;BR&gt;
      67P&lt;BR&gt;
      67W&lt;BR&gt;
      67X&lt;BR&gt;
      67Y&lt;BR&gt;
      67Z&lt;BR&gt;
      68P&lt;BR&gt;
      68W&lt;BR&gt;
      68X&lt;BR&gt;
      67Y&amp;nbsp;ALT&lt;BR&gt;
      67Z&amp;nbsp;ALT&lt;BR&gt;&lt;/FONT&gt;
    &lt;/TD&gt;
    &lt;TD BGCOLOR="#cccccc" ALIGN=CENTER&gt;&lt;FONT FACE=ARIAL SIZE=3&gt;
      5050&lt;BR&gt;
      5091&lt;BR&gt;
      5080&lt;BR&gt;
      5087&lt;BR&gt;
      -&lt;BR&gt;
      -&lt;BR&gt;
      -&lt;BR&gt;
      -&lt;BR&gt;
      -&lt;BR&gt;
      -&lt;BR&gt;
      -&lt;BR&gt;
      T63YB&lt;BR&gt;
      T63XB&lt;BR&gt;
      -&lt;BR&gt;
      -&lt;BR&gt;
      -&lt;BR&gt;
      5887&lt;BR&gt;
      5891&lt;BR&gt;
      5880&lt;BR&gt;
      -&lt;BR&gt;
      -&lt;BR&gt;
      -&lt;BR&gt;
      T93Z&lt;BR&gt;
      T93YA&lt;BR&gt;
      T93XA&lt;BR&gt;
      T93YB&lt;BR&gt;
      T93XB&lt;BR&gt;
      -&lt;BR&gt;
      -&lt;BR&gt;
      -&lt;BR&gt;
      -&lt;BR&gt;
      -&lt;BR&gt;&lt;/FONT&gt;
    &lt;/TD&gt;
    &lt;TD BGCOLOR="#cccccc" ALIGN=CENTER&gt;&lt;FONT FACE=ARIAL SIZE=3&gt;
      -&lt;BR&gt;
      -&lt;BR&gt;
      -&lt;BR&gt;
      -&lt;BR&gt;
      -&lt;BR&gt;
      -&lt;BR&gt;
      -&lt;BR&gt;
      -&lt;BR&gt;
      -&lt;BR&gt;
      -&lt;BR&gt;
      8026EKP&lt;BR&gt;
      8026EKW&lt;BR&gt;
      8026EKM&lt;BR&gt;
      8026EKP&lt;BR&gt;
      8026EKB&lt;BR&gt;
      8026EKM&lt;BR&gt;
      1309X&lt;BR&gt;
      1309P&lt;BR&gt;
      1309W&lt;BR&gt;
      8024EKP&lt;BR&gt;
      8024EKW&lt;BR&gt;
      8024EKN&lt;BR&gt;
      RJ-9P/CT9P&lt;BR&gt;
      RJ-9W&lt;BR&gt;
      RJ-9X&lt;BR&gt;
      -&lt;BR&gt;
      -&lt;BR&gt;
      -&lt;BR&gt;
      -&lt;BR&gt;
      -&lt;BR&gt;
      -&lt;BR&gt;
      -&lt;BR&gt;&lt;/FONT&gt;
    &lt;/TD&gt;
    &lt;TD BGCOLOR="#cccccc" ALIGN=CENTER&gt;&lt;FONT FACE=ARIAL SIZE=3&gt;
      -&lt;BR&gt;
      -&lt;BR&gt;
      -&lt;BR&gt;
      -&lt;BR&gt;
      -&lt;BR&gt;
      -&lt;BR&gt;
      -&lt;BR&gt;
      -&lt;BR&gt;
      -&lt;BR&gt;
      -&lt;BR&gt;
      3103P&lt;BR&gt;
      3103Y&lt;BR&gt;
      3103Z&lt;BR&gt;
      3103P&lt;BR&gt;
      3103Y&lt;BR&gt;
      3103Z&lt;BR&gt;
      -&lt;BR&gt;
      -&lt;BR&gt;
      -&lt;BR&gt;
      -&lt;BR&gt;
      -&lt;BR&gt;
      -&lt;BR&gt;
      3105P/3106P&lt;BR&gt;
      3105W/3106W&lt;BR&gt;
      3105X/3106X&lt;BR&gt;
      3105Y/3106Y&lt;BR&gt;
      3105Z/3105Z&lt;BR&gt;
      3102P&lt;BR&gt;
      3102W&lt;BR&gt;
      3102X&lt;BR&gt;
      3102Y&lt;BR&gt;
      3102Z&lt;BR&gt;&lt;/FONT&gt;
    &lt;/TD&gt;
    &lt;TD BGCOLOR="#cccccc" ALIGN=CENTER&gt;&lt;FONT FACE=ARIAL SIZE=3&gt;
      -&lt;BR&gt;
      -&lt;BR&gt;
      -&lt;BR&gt;
      -&lt;BR&gt;
      -&lt;BR&gt;
      -&lt;BR&gt;
      -&lt;BR&gt;
      -&lt;BR&gt;
      -&lt;BR&gt;
      -&lt;BR&gt;
      -&lt;BR&gt;
      -&lt;BR&gt;
      -&lt;BR&gt;
      -&lt;BR&gt;
      -&lt;BR&gt;
      -&lt;BR&gt;
      -&lt;BR&gt;
      -&lt;BR&gt;
      -&lt;BR&gt;
      -&lt;BR&gt;
      -&lt;BR&gt;
      -&lt;BR&gt;
      EVMCBG&lt;BR&gt;
      EVMCCG&lt;BR&gt;
      -&lt;BR&gt;
      -&lt;BR&gt;
      -&lt;BR&gt;
      -&lt;BR&gt;
      -&lt;BR&gt;
      -&lt;BR&gt;
      -&lt;BR&gt;
      -&lt;BR&gt;&lt;/FONT&gt;
    &lt;/TD&gt;
    &lt;TD BGCOLOR="#cccccc" ALIGN=CENTER&gt;&lt;FONT FACE=ARIAL SIZE=3&gt;
      55-1-X&lt;BR&gt;
      55-4-X&lt;BR&gt;
      55-3-X&lt;BR&gt;
      55-2-X&lt;BR&gt;
      -&lt;BR&gt;
      -&lt;BR&gt;
      -&lt;BR&gt;
      -&lt;BR&gt;
      -&lt;BR&gt;
      -&lt;BR&gt;
      -&lt;BR&gt;
      -&lt;BR&gt;
      -&lt;BR&gt;
      -&lt;BR&gt;
      -&lt;BR&gt;
      -&lt;BR&gt;
      50-2-X&lt;BR&gt;
      50-4-X&lt;BR&gt;
      50-3-X&lt;BR&gt;
      -&lt;BR&gt;
      -&lt;BR&gt;
      -&lt;BR&gt;
      64P&lt;BR&gt;
      64W&lt;BR&gt;
      64X&lt;BR&gt;
      64Y&lt;BR&gt;
      64Z&lt;BR&gt;
      -&lt;BR&gt;
      -&lt;BR&gt;
      -&lt;BR&gt;
      -&lt;BR&gt;
      -&lt;BR&gt;&lt;/FONT&gt;
    &lt;/TD&gt;
    &lt;TD BGCOLOR="#cccccc" ALIGN=CENTER&gt;&lt;FONT FACE=ARIAL SIZE=3&gt;
      RT/RTR22&lt;BR&gt;
      RT/RTR22&lt;BR&gt;
      RT/RTR22&lt;BR&gt;
      RT/RTR22&lt;BR&gt;
      RJ/RJR22&lt;BR&gt;
      RJ/RJR22&lt;BR&gt;
      RJ/RJR22&lt;BR&gt;
      RT/RTR26&lt;BR&gt;
      RT/RTR26&lt;BR&gt;
      RT/RTR26&lt;BR&gt;
      RJ/RJR26&lt;BR&gt;
      RJ/RJR26&lt;BR&gt;
      RJ/RJR26&lt;BR&gt;
      RJ/RJR26&lt;BR&gt;
      RJ/RJR26&lt;BR&gt;
      RJ/RJR26&lt;BR&gt;
      RT/RTR24&lt;BR&gt;
      RT/RTR24&lt;BR&gt;
      RT/RTR24&lt;BR&gt;
      RJ/RJR24&lt;BR&gt;
      RJ/RJR24&lt;BR&gt;
      RJ/RJR24&lt;BR&gt;
      RJ/RJR24&lt;BR&gt;
      RJ/RJR24&lt;BR&gt;
      RJ/RJR24&lt;BR&gt;
      -&lt;BR&gt;
      -&lt;BR&gt;
      -&lt;BR&gt;
      -&lt;BR&gt;
      -&lt;BR&gt;
      -&lt;BR&gt;
      -&lt;BR&gt;&lt;/FONT&gt;
    &lt;/TD&gt;
  &lt;/TR&gt;
  &lt;TR&gt;
    &lt;TD COLSPAN=8&gt;&amp;nbsp;
    &lt;/TD&gt;
  &lt;/TR&gt;
  &lt;TR&gt;
    &lt;TD COLSPAN=8&gt;
      &lt;FONT SIZE=4 FACE=ARIAL&gt;&lt;B&gt;SINGLE TURN&lt;/B&gt;&lt;/FONT&gt;
    &lt;/TD&gt;
  &lt;/TR&gt;
  &lt;TR&gt;
    &lt;TD ALIGN=CENTER&gt;
      &lt;FONT SIZE=3 FACE=ARIAL&gt;&lt;B&gt;BOURN&lt;/B&gt;&lt;/FONT&gt;
    &lt;/TD&gt;
    &lt;TD ALIGN=CENTER&gt;
      &lt;FONT SIZE=3 FACE=ARIAL&gt;&lt;B&gt;BI&amp;nbsp;TECH&lt;/B&gt;&lt;/FONT&gt;
    &lt;/TD&gt;
    &lt;TD ALIGN=CENTER&gt;
      &lt;FONT SIZE=3 FACE=ARIAL&gt;&lt;B&gt;DALE-VISHAY&lt;/B&gt;&lt;/FONT&gt;
    &lt;/TD&gt;
    &lt;TD ALIGN=CENTER&gt;
      &lt;FONT SIZE=3 FACE=ARIAL&gt;&lt;B&gt;PHILIPS/MEPCO&lt;/B&gt;&lt;/FONT&gt;
    &lt;/TD&gt;
    &lt;TD ALIGN=CENTER&gt;
      &lt;FONT SIZE=3 FACE=ARIAL&gt;&lt;B&gt;MURATA&lt;/B&gt;&lt;/FONT&gt;
    &lt;/TD&gt;
    &lt;TD ALIGN=CENTER&gt;
      &lt;FONT SIZE=3 FACE=ARIAL&gt;&lt;B&gt;PANASONIC&lt;/B&gt;&lt;/FONT&gt;
    &lt;/TD&gt;
    &lt;TD ALIGN=CENTER&gt;
      &lt;FONT SIZE=3 FACE=ARIAL&gt;&lt;B&gt;SPECTROL&lt;/B&gt;&lt;/FONT&gt;
    &lt;/TD&gt;
    &lt;TD ALIGN=CENTER&gt;
      &lt;FONT SIZE=3 FACE=ARIAL&gt;&lt;B&gt;MILSPEC&lt;/B&gt;&lt;/FONT&gt;
    &lt;/TD&gt;
  &lt;/TR&gt;
  &lt;TR&gt;
    &lt;TD BGCOLOR="#cccccc" ALIGN=CENTER&gt;&lt;FONT FACE=ARIAL SIZE=3&gt;
      3323P&lt;BR&gt;
      3323S&lt;BR&gt;
      3323W&lt;BR&gt;
      3329H&lt;BR&gt;
      3329P&lt;BR&gt;
      3329W&lt;BR&gt;
      3339H&lt;BR&gt;
      3339P&lt;BR&gt;
      3339W&lt;BR&gt;
      3352E&lt;BR&gt;
      3352H&lt;BR&gt;
      3352K&lt;BR&gt;
      3352P&lt;BR&gt;
      3352T&lt;BR&gt;
      3352V&lt;BR&gt;
      3352W&lt;BR&gt;
      3362H&lt;BR&gt;
      3362M&lt;BR&gt;
      3362P&lt;BR&gt;
      3362R&lt;BR&gt;
      3362S&lt;BR&gt;
      3362U&lt;BR&gt;
      3362W&lt;BR&gt;
      3362X&lt;BR&gt;
      3386B&lt;BR&gt;
      3386C&lt;BR&gt;
      3386F&lt;BR&gt;
      3386H&lt;BR&gt;
      3386K&lt;BR&gt;
      3386M&lt;BR&gt;
      3386P&lt;BR&gt;
      3386S&lt;BR&gt;
      3386W&lt;BR&gt;
      3386X&lt;BR&gt;&lt;/FONT&gt;
    &lt;/TD&gt;
    &lt;TD BGCOLOR="#cccccc" ALIGN=CENTER&gt;&lt;FONT FACE=ARIAL SIZE=3&gt;
      25P&lt;BR&gt;
      25S&lt;BR&gt;
      25RX&lt;BR&gt;
      82P&lt;BR&gt;
      82M&lt;BR&gt;
      82PA&lt;BR&gt;
      -&lt;BR&gt;
      -&lt;BR&gt;
      -&lt;BR&gt;
      91E&lt;BR&gt;
      91X&lt;BR&gt;
      91T&lt;BR&gt;
      91B&lt;BR&gt;
      91A&lt;BR&gt;
      91V&lt;BR&gt;
      91W&lt;BR&gt;
      25W&lt;BR&gt;
      25V&lt;BR&gt;
      25P&lt;BR&gt;
      -&lt;BR&gt;
      25S&lt;BR&gt;
      25U&lt;BR&gt;
      25RX&lt;BR&gt;
      25X&lt;BR&gt;
      72XW&lt;BR&gt;
      72XL&lt;BR&gt;
      72PM&lt;BR&gt;
      72RX&lt;BR&gt;
      -&lt;BR&gt;
      72PX&lt;BR&gt;
      72P&lt;BR&gt;
      72RXW&lt;BR&gt;
      72RXL&lt;BR&gt;
      72X&lt;BR&gt;&lt;/FONT&gt;
    &lt;/TD&gt;
    &lt;TD BGCOLOR="#cccccc" ALIGN=CENTER&gt;&lt;FONT FACE=ARIAL SIZE=3&gt;
      -&lt;BR&gt;
      -&lt;BR&gt;
      -&lt;BR&gt;
      T7YB&lt;BR&gt;
      T7YA&lt;BR&gt;
      -&lt;BR&gt;
      -&lt;BR&gt;
      -&lt;BR&gt;
      -&lt;BR&gt;
      -&lt;BR&gt;
      -&lt;BR&gt;
      -&lt;BR&gt;
      -&lt;BR&gt;
      -&lt;BR&gt;
      -&lt;BR&gt;
      -&lt;BR&gt;
      -&lt;BR&gt;
      TXD&lt;BR&gt;
      TYA&lt;BR&gt;
      TYP&lt;BR&gt;
      -&lt;BR&gt;
      TYD&lt;BR&gt;
      TX&lt;BR&gt;
      -&lt;BR&gt;
      150SX&lt;BR&gt;
      100SX&lt;BR&gt;
      102T&lt;BR&gt;
      101S&lt;BR&gt;
      190T&lt;BR&gt;
      150TX&lt;BR&gt;
      101&lt;BR&gt;
      -&lt;BR&gt;
      -&lt;BR&gt;
      101SX&lt;BR&gt;&lt;/FONT&gt;
    &lt;/TD&gt;
    &lt;TD BGCOLOR="#cccccc" ALIGN=CENTER&gt;&lt;FONT FACE=ARIAL SIZE=3&gt;
      ET6P&lt;BR&gt;
      ET6S&lt;BR&gt;
      ET6X&lt;BR&gt;
      RJ-6W/8014EMW&lt;BR&gt;
      RJ-6P/8014EMP&lt;BR&gt;
      RJ-6X/8014EMX&lt;BR&gt;
      TM7W&lt;BR&gt;
      TM7P&lt;BR&gt;
      TM7X&lt;BR&gt;
      -&lt;BR&gt;
      8017SMS&lt;BR&gt;
      -&lt;BR&gt;
      8017SMB&lt;BR&gt;
      8017SMA&lt;BR&gt;
      -&lt;BR&gt;
      -&lt;BR&gt;
      CT-6W&lt;BR&gt;
      CT-6H&lt;BR&gt;
      CT-6P&lt;BR&gt;
      CT-6R&lt;BR&gt;
      -&lt;BR&gt;
      CT-6V&lt;BR&gt;
      CT-6X&lt;BR&gt;
      -&lt;BR&gt;
      -&lt;BR&gt;
      8038EKV&lt;BR&gt;
      -&lt;BR&gt;
      8038EKX&lt;BR&gt;
      -&lt;BR&gt;
      -&lt;BR&gt;
      8038EKP&lt;BR&gt;
      8038EKZ&lt;BR&gt;
      8038EKW&lt;BR&gt;
      -&lt;BR&gt;&lt;/FONT&gt;
    &lt;/TD&gt;
    &lt;TD BGCOLOR="#cccccc" ALIGN=CENTER&gt;&lt;FONT FACE=ARIAL SIZE=3&gt;
      -&lt;BR&gt;
      -&lt;BR&gt;
      -&lt;BR&gt;
      3321H&lt;BR&gt;
      3321P&lt;BR&gt;
      3321N&lt;BR&gt;
      1102H&lt;BR&gt;
      1102P&lt;BR&gt;
      1102T&lt;BR&gt;
      RVA0911V304A&lt;BR&gt;
      -&lt;BR&gt;
      RVA0911H413A&lt;BR&gt;
      RVG0707V100A&lt;BR&gt;
      RVA0607V(H)306A&lt;BR&gt;
      RVA1214H213A&lt;BR&gt;
      -&lt;BR&gt;
      -&lt;BR&gt;
      -&lt;BR&gt;
      -&lt;BR&gt;
      -&lt;BR&gt;
      -&lt;BR&gt;
      -&lt;BR&gt;
      -&lt;BR&gt;
      -&lt;BR&gt;
      3104B&lt;BR&gt;
      3104C&lt;BR&gt;
      3104F&lt;BR&gt;
      3104H&lt;BR&gt;
      -&lt;BR&gt;
      3104M&lt;BR&gt;
      3104P&lt;BR&gt;
      3104S&lt;BR&gt;
      3104W&lt;BR&gt;
      3104X&lt;BR&gt;&lt;/FONT&gt;
    &lt;/TD&gt;
    &lt;TD BGCOLOR="#cccccc" ALIGN=CENTER&gt;&lt;FONT FACE=ARIAL SIZE=3&gt;
      EVMQ0G&lt;BR&gt;
      EVMQIG&lt;BR&gt;
      EVMQ3G&lt;BR&gt;
      EVMS0G&lt;BR&gt;
      EVMQ0G&lt;BR&gt;
      EVMG0G&lt;BR&gt;
      -&lt;BR&gt;
      -&lt;BR&gt;
      -&lt;BR&gt;
      EVMK4GA00B&lt;BR&gt;
      EVM30GA00B&lt;BR&gt;
      EVMK0GA00B&lt;BR&gt;
      EVM38GA00B&lt;BR&gt;
      EVMB6&lt;BR&gt;
      EVLQ0&lt;BR&gt;
      -&lt;BR&gt;
      EVMMSG&lt;BR&gt;
      EVMMBG&lt;BR&gt;
      EVMMAG&lt;BR&gt;
      -&lt;BR&gt;
      -&lt;BR&gt;
      EVMMCS&lt;BR&gt;
      -&lt;BR&gt;
      -&lt;BR&gt;
      -&lt;BR&gt;
      -&lt;BR&gt;
      -&lt;BR&gt;
      EVMM1&lt;BR&gt;
      -&lt;BR&gt;
      -&lt;BR&gt;
      EVMM0&lt;BR&gt;
      -&lt;BR&gt;
      -&lt;BR&gt;
      EVMM3&lt;BR&gt;&lt;/FONT&gt;
    &lt;/TD&gt;
    &lt;TD BGCOLOR="#cccccc" ALIGN=CENTER&gt;&lt;FONT FACE=ARIAL SIZE=3&gt;
      -&lt;BR&gt;
      -&lt;BR&gt;
      -&lt;BR&gt;
      62-3-1&lt;BR&gt;
      62-1-2&lt;BR&gt;
      -&lt;BR&gt;
      -&lt;BR&gt;
      -&lt;BR&gt;
      -&lt;BR&gt;
      -&lt;BR&gt;
      -&lt;BR&gt;
      -&lt;BR&gt;
      -&lt;BR&gt;
      -&lt;BR&gt;
      -&lt;BR&gt;
      -&lt;BR&gt;
      67R&lt;BR&gt;
      -&lt;BR&gt;
      67P&lt;BR&gt;
      -&lt;BR&gt;
      -&lt;BR&gt;
      -&lt;BR&gt;
      -&lt;BR&gt;
      67X&lt;BR&gt;
      63V&lt;BR&gt;
      63S&lt;BR&gt;
      63M&lt;BR&gt;
      -&lt;BR&gt;
      -&lt;BR&gt;
      63H&lt;BR&gt;
      63P&lt;BR&gt;
      -&lt;BR&gt;
      -&lt;BR&gt;
      63X&lt;BR&gt;&lt;/FONT&gt;
    &lt;/TD&gt;
    &lt;TD BGCOLOR="#cccccc" ALIGN=CENTER&gt;&lt;FONT FACE=ARIAL SIZE=3&gt;
      -&lt;BR&gt;
      -&lt;BR&gt;
      -&lt;BR&gt;
      RJ/RJR50&lt;BR&gt;
      RJ/RJR50&lt;BR&gt;
      RJ/RJR50&lt;BR&gt;
      -&lt;BR&gt;
      -&lt;BR&gt;
      -&lt;BR&gt;
      -&lt;BR&gt;
      -&lt;BR&gt;
      -&lt;BR&gt;
      -&lt;BR&gt;
      -&lt;BR&gt;
      -&lt;BR&gt;
      -&lt;BR&gt;
      -&lt;BR&gt;
      -&lt;BR&gt;
      -&lt;BR&gt;
      -&lt;BR&gt;
      -&lt;BR&gt;
      -&lt;BR&gt;
      -&lt;BR&gt;
      -&lt;BR&gt;
      -&lt;BR&gt;
      -&lt;BR&gt;
      -&lt;BR&gt;
      -&lt;BR&gt;
      -&lt;BR&gt;
      -&lt;BR&gt;
      -&lt;BR&gt;
      -&lt;BR&gt;
      -&lt;BR&gt;
      -&lt;BR&gt;&lt;/FONT&gt;
    &lt;/TD&gt;
  &lt;/TR&gt;
&lt;/TABLE&gt;
&lt;P&gt;&amp;nbsp;&lt;P&gt;
&lt;TABLE BORDER=0 CELLSPACING=1 CELLPADDING=3&gt;
  &lt;TR&gt;
    &lt;TD COLSPAN=7&gt;
      &lt;FONT color="#0000FF" SIZE=4 FACE=ARIAL&gt;&lt;B&gt;SMD TRIM-POT CROSS REFERENCE&lt;/B&gt;&lt;/FONT&gt;
      &lt;P&gt;
      &lt;FONT SIZE=4 FACE=ARIAL&gt;&lt;B&gt;MULTI-TURN&lt;/B&gt;&lt;/FONT&gt;
    &lt;/TD&gt;
  &lt;/TR&gt;
  &lt;TR&gt;
    &lt;TD&gt;
      &lt;FONT SIZE=3 FACE=ARIAL&gt;&lt;B&gt;BOURNS&lt;/B&gt;&lt;/FONT&gt;
    &lt;/TD&gt;
    &lt;TD&gt;
      &lt;FONT SIZE=3 FACE=ARIAL&gt;&lt;B&gt;BI&amp;nbsp;TECH&lt;/B&gt;&lt;/FONT&gt;
    &lt;/TD&gt;
    &lt;TD&gt;
      &lt;FONT SIZE=3 FACE=ARIAL&gt;&lt;B&gt;DALE-VISHAY&lt;/B&gt;&lt;/FONT&gt;
    &lt;/TD&gt;
    &lt;TD&gt;
      &lt;FONT SIZE=3 FACE=ARIAL&gt;&lt;B&gt;PHILIPS/MEPCO&lt;/B&gt;&lt;/FONT&gt;
    &lt;/TD&gt;
    &lt;TD&gt;
      &lt;FONT SIZE=3 FACE=ARIAL&gt;&lt;B&gt;PANASONIC&lt;/B&gt;&lt;/FONT&gt;
    &lt;/TD&gt;
    &lt;TD&gt;
      &lt;FONT SIZE=3 FACE=ARIAL&gt;&lt;B&gt;TOCOS&lt;/B&gt;&lt;/FONT&gt;
    &lt;/TD&gt;
    &lt;TD&gt;
      &lt;FONT SIZE=3 FACE=ARIAL&gt;&lt;B&gt;AUX/KYOCERA&lt;/B&gt;&lt;/FONT&gt;
    &lt;/TD&gt;
  &lt;/TR&gt;
  &lt;TR&gt;
    &lt;TD BGCOLOR="#cccccc" ALIGN=CENTER&gt;&lt;FONT FACE=ARIAL SIZE=3&gt;
      3224G&lt;BR&gt;
      3224J&lt;BR&gt;
      3224W&lt;BR&gt;
      3269P&lt;BR&gt;
      3269W&lt;BR&gt;
      3269X&lt;BR&gt;&lt;/FONT&gt;
    &lt;/TD&gt;
    &lt;TD BGCOLOR="#cccccc" ALIGN=CENTER&gt;&lt;FONT FACE=ARIAL SIZE=3&gt;
      44G&lt;BR&gt;
      44J&lt;BR&gt;
      44W&lt;BR&gt;
      84P&lt;BR&gt;
      84W&lt;BR&gt;
      84X&lt;BR&gt;&lt;/FONT&gt;
    &lt;/TD&gt;
    &lt;TD BGCOLOR="#cccccc" ALIGN=CENTER&gt;&lt;FONT FACE=ARIAL SIZE=3&gt;
      -&lt;BR&gt;
      -&lt;BR&gt;
      -&lt;BR&gt;
      ST63Z&lt;BR&gt;
      ST63Y&lt;BR&gt;
      -&lt;BR&gt;&lt;/FONT&gt;
    &lt;/TD&gt;
    &lt;TD BGCOLOR="#cccccc" ALIGN=CENTER&gt;&lt;FONT FACE=ARIAL SIZE=3&gt;
      -&lt;BR&gt;
      -&lt;BR&gt;
      -&lt;BR&gt;
      ST5P&lt;BR&gt;
      ST5W&lt;BR&gt;
      ST5X&lt;BR&gt;&lt;/FONT&gt;
    &lt;/TD&gt;
    &lt;TD BGCOLOR="#cccccc" ALIGN=CENTER&gt;&lt;FONT FACE=ARIAL SIZE=3&gt;
      -&lt;BR&gt;
      -&lt;BR&gt;
      -&lt;BR&gt;
      -&lt;BR&gt;
      -&lt;BR&gt;
      -&lt;BR&gt;&lt;/FONT&gt;
    &lt;/TD&gt;
    &lt;TD BGCOLOR="#cccccc" ALIGN=CENTER&gt;&lt;FONT FACE=ARIAL SIZE=3&gt;
      -&lt;BR&gt;
      -&lt;BR&gt;
      -&lt;BR&gt;
      -&lt;BR&gt;
      -&lt;BR&gt;
      -&lt;BR&gt;&lt;/FONT&gt;
    &lt;/TD&gt;
    &lt;TD BGCOLOR="#cccccc" ALIGN=CENTER&gt;&lt;FONT FACE=ARIAL SIZE=3&gt;
      -&lt;BR&gt;
      -&lt;BR&gt;
      -&lt;BR&gt;
      -&lt;BR&gt;
      -&lt;BR&gt;
      -&lt;BR&gt;&lt;/FONT&gt;
    &lt;/TD&gt;
  &lt;/TR&gt;
  &lt;TR&gt;
    &lt;TD COLSPAN=7&gt;&amp;nbsp;
    &lt;/TD&gt;
  &lt;/TR&gt;
  &lt;TR&gt;
    &lt;TD COLSPAN=7&gt;
      &lt;FONT SIZE=4 FACE=ARIAL&gt;&lt;B&gt;SINGLE TURN&lt;/B&gt;&lt;/FONT&gt;
    &lt;/TD&gt;
  &lt;/TR&gt;
  &lt;TR&gt;
    &lt;TD&gt;
      &lt;FONT SIZE=3 FACE=ARIAL&gt;&lt;B&gt;BOURNS&lt;/B&gt;&lt;/FONT&gt;
    &lt;/TD&gt;
    &lt;TD&gt;
      &lt;FONT SIZE=3 FACE=ARIAL&gt;&lt;B&gt;BI&amp;nbsp;TECH&lt;/B&gt;&lt;/FONT&gt;
    &lt;/TD&gt;
    &lt;TD&gt;
      &lt;FONT SIZE=3 FACE=ARIAL&gt;&lt;B&gt;DALE-VISHAY&lt;/B&gt;&lt;/FONT&gt;
    &lt;/TD&gt;
    &lt;TD&gt;
      &lt;FONT SIZE=3 FACE=ARIAL&gt;&lt;B&gt;PHILIPS/MEPCO&lt;/B&gt;&lt;/FONT&gt;
    &lt;/TD&gt;
    &lt;TD&gt;
      &lt;FONT SIZE=3 FACE=ARIAL&gt;&lt;B&gt;PANASONIC&lt;/B&gt;&lt;/FONT&gt;
    &lt;/TD&gt;
    &lt;TD&gt;
      &lt;FONT SIZE=3 FACE=ARIAL&gt;&lt;B&gt;TOCOS&lt;/B&gt;&lt;/FONT&gt;
    &lt;/TD&gt;
    &lt;TD&gt;
      &lt;FONT SIZE=3 FACE=ARIAL&gt;&lt;B&gt;AUX/KYOCERA&lt;/B&gt;&lt;/FONT&gt;
    &lt;/TD&gt;
  &lt;/TR&gt;
  &lt;TR&gt;
    &lt;TD BGCOLOR="#cccccc" ALIGN=CENTER&gt;&lt;FONT FACE=ARIAL SIZE=3&gt;
      3314G&lt;BR&gt;
      3314J&lt;BR&gt;
      3364A/B&lt;BR&gt;
      3364C/D&lt;BR&gt;
      3364W/X&lt;BR&gt;
      3313G&lt;BR&gt;
      3313J&lt;BR&gt;&lt;/FONT&gt;
    &lt;/TD&gt;
    &lt;TD BGCOLOR="#cccccc" ALIGN=CENTER&gt;&lt;FONT FACE=ARIAL SIZE=3&gt;
      23B&lt;BR&gt;
      23A&lt;BR&gt;
      21X&lt;BR&gt;
      21W&lt;BR&gt;
      -&lt;BR&gt;
      22B&lt;BR&gt;
      22A&lt;BR&gt;&lt;/FONT&gt;
    &lt;/TD&gt;
    &lt;TD BGCOLOR="#cccccc" ALIGN=CENTER&gt;&lt;FONT FACE=ARIAL SIZE=3&gt;
      ST5YL/ST53YL&lt;BR&gt;
      ST5YJ/5T53YJ&lt;BR&gt;
      ST-23A&lt;BR&gt;
      ST-22B&lt;BR&gt;
      ST-22&lt;BR&gt;
      -&lt;BR&gt;
      -&lt;BR&gt;&lt;/FONT&gt;
    &lt;/TD&gt;
    &lt;TD BGCOLOR="#cccccc" ALIGN=CENTER&gt;&lt;FONT FACE=ARIAL SIZE=3&gt;
      ST-4B&lt;BR&gt;
      ST-4A&lt;BR&gt;
      -&lt;BR&gt;
      -&lt;BR&gt;
      -&lt;BR&gt;
      ST-3B&lt;BR&gt;
      ST-3A&lt;BR&gt;&lt;/FONT&gt;
    &lt;/TD&gt;
    &lt;TD BGCOLOR="#cccccc" ALIGN=CENTER&gt;&lt;FONT FACE=ARIAL SIZE=3&gt;
      -&lt;BR&gt;
      EVM-6YS&lt;BR&gt;
      EVM-1E&lt;BR&gt;
      EVM-1G&lt;BR&gt;
      EVM-1D&lt;BR&gt;
      -&lt;BR&gt;
      -&lt;BR&gt;&lt;/FONT&gt;
    &lt;/TD&gt;
    &lt;TD BGCOLOR="#cccccc" ALIGN=CENTER&gt;&lt;FONT FACE=ARIAL SIZE=3&gt;
      G4B&lt;BR&gt;
      G4A&lt;BR&gt;
      TR04-3S1&lt;BR&gt;
      TRG04-2S1&lt;BR&gt;
      -&lt;BR&gt;
      -&lt;BR&gt;
      -&lt;BR&gt;&lt;/FONT&gt;
    &lt;/TD&gt;
    &lt;TD BGCOLOR="#cccccc" ALIGN=CENTER&gt;&lt;FONT FACE=ARIAL SIZE=3&gt;
      -&lt;BR&gt;
      -&lt;BR&gt;
      DVR-43A&lt;BR&gt;
      CVR-42C&lt;BR&gt;
      CVR-42A/C&lt;BR&gt;
      -&lt;BR&gt;
      -&lt;BR&gt;&lt;/FONT&gt;
    &lt;/TD&gt;
  &lt;/TR&gt;
&lt;/TABLE&gt;
&lt;P&gt;
&lt;FONT SIZE=4 FACE=ARIAL&gt;&lt;B&gt;ALT =&amp;nbsp;ALTERNATE&lt;/B&gt;&lt;/FONT&gt;
&lt;P&gt;

&amp;nbsp;
&lt;P&gt;
&lt;/td&gt;
&lt;/tr&gt;
&lt;/table&gt;</description>
<packages>
<package name="R0805">
<description>&lt;b&gt;RESISTOR&lt;/b&gt;&lt;p&gt;</description>
<wire x1="-0.41" y1="0.635" x2="0.41" y2="0.635" width="0.1524" layer="51"/>
<wire x1="-0.41" y1="-0.635" x2="0.41" y2="-0.635" width="0.1524" layer="51"/>
<wire x1="-1.973" y1="0.983" x2="1.973" y2="0.983" width="0.0508" layer="39"/>
<wire x1="1.973" y1="0.983" x2="1.973" y2="-0.983" width="0.0508" layer="39"/>
<wire x1="1.973" y1="-0.983" x2="-1.973" y2="-0.983" width="0.0508" layer="39"/>
<wire x1="-1.973" y1="-0.983" x2="-1.973" y2="0.983" width="0.0508" layer="39"/>
<smd name="1" x="-0.95" y="0" dx="1.3" dy="1.5" layer="1"/>
<smd name="2" x="0.95" y="0" dx="1.3" dy="1.5" layer="1"/>
<text x="-0.635" y="1.27" size="1.27" layer="25">&gt;NAME</text>
<text x="-0.635" y="-2.54" size="1.27" layer="27">&gt;VALUE</text>
<rectangle x1="0.4064" y1="-0.6985" x2="1.0564" y2="0.7015" layer="51"/>
<rectangle x1="-1.0668" y1="-0.6985" x2="-0.4168" y2="0.7015" layer="51"/>
<rectangle x1="-0.1999" y1="-0.5001" x2="0.1999" y2="0.5001" layer="35"/>
</package>
<package name="C0805">
<description>&lt;b&gt;CAPACITOR&lt;/b&gt;&lt;p&gt;</description>
<wire x1="-1.973" y1="0.983" x2="1.973" y2="0.983" width="0.0508" layer="39"/>
<wire x1="1.973" y1="-0.983" x2="-1.973" y2="-0.983" width="0.0508" layer="39"/>
<wire x1="-1.973" y1="-0.983" x2="-1.973" y2="0.983" width="0.0508" layer="39"/>
<wire x1="-0.381" y1="0.66" x2="0.381" y2="0.66" width="0.1016" layer="51"/>
<wire x1="-0.356" y1="-0.66" x2="0.381" y2="-0.66" width="0.1016" layer="51"/>
<wire x1="1.973" y1="0.983" x2="1.973" y2="-0.983" width="0.0508" layer="39"/>
<smd name="1" x="-0.95" y="0" dx="1.3" dy="1.5" layer="1"/>
<smd name="2" x="0.95" y="0" dx="1.3" dy="1.5" layer="1"/>
<text x="-1.27" y="1.27" size="1.27" layer="25">&gt;NAME</text>
<text x="-1.27" y="-2.54" size="1.27" layer="27">&gt;VALUE</text>
<rectangle x1="-1.0922" y1="-0.7239" x2="-0.3421" y2="0.7262" layer="51"/>
<rectangle x1="0.3556" y1="-0.7239" x2="1.1057" y2="0.7262" layer="51"/>
<rectangle x1="-0.1001" y1="-0.4001" x2="0.1001" y2="0.4001" layer="35"/>
</package>
</packages>
</library>
<library name="ftdichip">
<description>&lt;b&gt;FTDI (TM) CHIP&lt;/b&gt; Future Technology Devices International Ltd.&lt;p&gt;
http://www.ftdichip.com</description>
<packages>
<package name="SSOP28">
<description>&lt;b&gt;Shrink Small Outline Package&lt;/b&gt; SSOP-28&lt;p&gt;
http://www.ftdichip.com/Documents/DataSheets/DS_FT232R_v104.pdf</description>
<wire x1="-5.1" y1="-2.6" x2="5.1" y2="-2.6" width="0.2032" layer="21"/>
<wire x1="5.1" y1="-2.6" x2="5.1" y2="2.6" width="0.2032" layer="21"/>
<wire x1="5.1" y1="2.6" x2="-5.1" y2="2.6" width="0.2032" layer="21"/>
<wire x1="-5.1" y1="2.6" x2="-5.1" y2="-2.6" width="0.2032" layer="21"/>
<circle x="-4.2" y="-1.625" radius="0.4422" width="0" layer="21"/>
<smd name="1" x="-4.225" y="-3.625" dx="0.4" dy="1.5" layer="1"/>
<smd name="2" x="-3.575" y="-3.625" dx="0.4" dy="1.5" layer="1"/>
<smd name="3" x="-2.925" y="-3.625" dx="0.4" dy="1.5" layer="1"/>
<smd name="4" x="-2.275" y="-3.625" dx="0.4" dy="1.5" layer="1"/>
<smd name="5" x="-1.625" y="-3.625" dx="0.4" dy="1.5" layer="1"/>
<smd name="6" x="-0.975" y="-3.625" dx="0.4" dy="1.5" layer="1"/>
<smd name="7" x="-0.325" y="-3.625" dx="0.4" dy="1.5" layer="1"/>
<smd name="8" x="0.325" y="-3.625" dx="0.4" dy="1.5" layer="1"/>
<smd name="9" x="0.975" y="-3.625" dx="0.4" dy="1.5" layer="1"/>
<smd name="10" x="1.625" y="-3.625" dx="0.4" dy="1.5" layer="1"/>
<smd name="11" x="2.275" y="-3.625" dx="0.4" dy="1.5" layer="1"/>
<smd name="12" x="2.925" y="-3.625" dx="0.4" dy="1.5" layer="1"/>
<smd name="13" x="3.575" y="-3.625" dx="0.4" dy="1.5" layer="1"/>
<smd name="14" x="4.225" y="-3.625" dx="0.4" dy="1.5" layer="1"/>
<smd name="15" x="4.225" y="3.625" dx="0.4" dy="1.5" layer="1"/>
<smd name="16" x="3.575" y="3.625" dx="0.4" dy="1.5" layer="1"/>
<smd name="17" x="2.925" y="3.625" dx="0.4" dy="1.5" layer="1"/>
<smd name="18" x="2.275" y="3.625" dx="0.4" dy="1.5" layer="1"/>
<smd name="19" x="1.625" y="3.625" dx="0.4" dy="1.5" layer="1"/>
<smd name="20" x="0.975" y="3.625" dx="0.4" dy="1.5" layer="1"/>
<smd name="21" x="0.325" y="3.625" dx="0.4" dy="1.5" layer="1"/>
<smd name="22" x="-0.325" y="3.625" dx="0.4" dy="1.5" layer="1"/>
<smd name="23" x="-0.975" y="3.625" dx="0.4" dy="1.5" layer="1"/>
<smd name="24" x="-1.625" y="3.625" dx="0.4" dy="1.5" layer="1"/>
<smd name="25" x="-2.275" y="3.625" dx="0.4" dy="1.5" layer="1"/>
<smd name="26" x="-2.925" y="3.625" dx="0.4" dy="1.5" layer="1"/>
<smd name="27" x="-3.575" y="3.625" dx="0.4" dy="1.5" layer="1"/>
<smd name="28" x="-4.225" y="3.625" dx="0.4" dy="1.5" layer="1"/>
<text x="-5.476" y="-2.6299" size="1.27" layer="25" rot="R90">&gt;NAME</text>
<text x="-3.8999" y="-0.68" size="1.27" layer="27">&gt;VALUE</text>
<rectangle x1="-4.4028" y1="-3.937" x2="-4.0472" y2="-2.6416" layer="51"/>
<rectangle x1="-3.7529" y1="-3.937" x2="-3.3973" y2="-2.6416" layer="51"/>
<rectangle x1="-3.1029" y1="-3.937" x2="-2.7473" y2="-2.6416" layer="51"/>
<rectangle x1="-2.4529" y1="-3.937" x2="-2.0973" y2="-2.6416" layer="51"/>
<rectangle x1="-1.8029" y1="-3.937" x2="-1.4473" y2="-2.6416" layer="51"/>
<rectangle x1="-1.1529" y1="-3.937" x2="-0.7973" y2="-2.6416" layer="51"/>
<rectangle x1="-0.5029" y1="-3.937" x2="-0.1473" y2="-2.6416" layer="51"/>
<rectangle x1="0.1473" y1="-3.937" x2="0.5029" y2="-2.6416" layer="51"/>
<rectangle x1="0.7973" y1="-3.937" x2="1.1529" y2="-2.6416" layer="51"/>
<rectangle x1="1.4473" y1="-3.937" x2="1.8029" y2="-2.6416" layer="51"/>
<rectangle x1="2.0973" y1="-3.937" x2="2.4529" y2="-2.6416" layer="51"/>
<rectangle x1="2.7473" y1="-3.937" x2="3.1029" y2="-2.6416" layer="51"/>
<rectangle x1="3.3973" y1="-3.937" x2="3.7529" y2="-2.6416" layer="51"/>
<rectangle x1="4.0472" y1="-3.937" x2="4.4028" y2="-2.6416" layer="51"/>
<rectangle x1="4.0472" y1="2.6416" x2="4.4028" y2="3.937" layer="51"/>
<rectangle x1="3.3973" y1="2.6416" x2="3.7529" y2="3.937" layer="51"/>
<rectangle x1="2.7473" y1="2.6416" x2="3.1029" y2="3.937" layer="51"/>
<rectangle x1="2.0973" y1="2.6416" x2="2.4529" y2="3.937" layer="51"/>
<rectangle x1="1.4473" y1="2.6416" x2="1.8029" y2="3.937" layer="51"/>
<rectangle x1="0.7973" y1="2.6416" x2="1.1529" y2="3.937" layer="51"/>
<rectangle x1="0.1473" y1="2.6416" x2="0.5029" y2="3.937" layer="51"/>
<rectangle x1="-0.5029" y1="2.6416" x2="-0.1473" y2="3.937" layer="51"/>
<rectangle x1="-1.1529" y1="2.6416" x2="-0.7973" y2="3.937" layer="51"/>
<rectangle x1="-1.8029" y1="2.6416" x2="-1.4473" y2="3.937" layer="51"/>
<rectangle x1="-2.4529" y1="2.6416" x2="-2.0973" y2="3.937" layer="51"/>
<rectangle x1="-3.1029" y1="2.6416" x2="-2.7473" y2="3.937" layer="51"/>
<rectangle x1="-3.7529" y1="2.6416" x2="-3.3973" y2="3.937" layer="51"/>
<rectangle x1="-4.4028" y1="2.6416" x2="-4.0472" y2="3.937" layer="51"/>
</package>
</packages>
</library>
<library name="con-lsta">
<description>&lt;b&gt;Female Headers etc.&lt;/b&gt;&lt;p&gt;
Naming:&lt;p&gt;
FE = female&lt;p&gt;
# contacts - # rows&lt;p&gt;
W = angled&lt;p&gt;
&lt;author&gt;Created by librarian@cadsoft.de&lt;/author&gt;</description>
<packages>
<package name="FE06">
<description>&lt;b&gt;FEMALE HEADER&lt;/b&gt;</description>
<wire x1="-7.62" y1="1.27" x2="-7.62" y2="-1.27" width="0.1524" layer="21"/>
<wire x1="-7.62" y1="-1.27" x2="-5.334" y2="-1.27" width="0.1524" layer="21"/>
<wire x1="-5.334" y1="-1.27" x2="-5.08" y2="-1.016" width="0.1524" layer="21"/>
<wire x1="-5.08" y1="-1.016" x2="-4.826" y2="-1.27" width="0.1524" layer="21"/>
<wire x1="-4.826" y1="-1.27" x2="-2.794" y2="-1.27" width="0.1524" layer="21"/>
<wire x1="-2.794" y1="-1.27" x2="-2.54" y2="-1.016" width="0.1524" layer="21"/>
<wire x1="-2.54" y1="-1.016" x2="-2.286" y2="-1.27" width="0.1524" layer="21"/>
<wire x1="-2.286" y1="-1.27" x2="-0.254" y2="-1.27" width="0.1524" layer="21"/>
<wire x1="-0.254" y1="-1.27" x2="0" y2="-1.016" width="0.1524" layer="21"/>
<wire x1="0" y1="-1.016" x2="0.254" y2="-1.27" width="0.1524" layer="21"/>
<wire x1="0.254" y1="-1.27" x2="2.286" y2="-1.27" width="0.1524" layer="21"/>
<wire x1="2.286" y1="-1.27" x2="2.54" y2="-1.016" width="0.1524" layer="21"/>
<wire x1="2.54" y1="-1.016" x2="2.794" y2="-1.27" width="0.1524" layer="21"/>
<wire x1="2.794" y1="-1.27" x2="4.826" y2="-1.27" width="0.1524" layer="21"/>
<wire x1="5.334" y1="-1.27" x2="7.62" y2="-1.27" width="0.1524" layer="21"/>
<wire x1="7.62" y1="-1.27" x2="7.62" y2="1.27" width="0.1524" layer="21"/>
<wire x1="7.62" y1="1.27" x2="5.334" y2="1.27" width="0.1524" layer="21"/>
<wire x1="4.826" y1="1.27" x2="2.794" y2="1.27" width="0.1524" layer="21"/>
<wire x1="2.794" y1="1.27" x2="2.54" y2="1.016" width="0.1524" layer="21"/>
<wire x1="2.54" y1="1.016" x2="2.286" y2="1.27" width="0.1524" layer="21"/>
<wire x1="2.286" y1="1.27" x2="0.254" y2="1.27" width="0.1524" layer="21"/>
<wire x1="0.254" y1="1.27" x2="0" y2="1.016" width="0.1524" layer="21"/>
<wire x1="0" y1="1.016" x2="-0.254" y2="1.27" width="0.1524" layer="21"/>
<wire x1="-0.254" y1="1.27" x2="-2.286" y2="1.27" width="0.1524" layer="21"/>
<wire x1="-2.286" y1="1.27" x2="-2.54" y2="1.016" width="0.1524" layer="21"/>
<wire x1="-2.54" y1="1.016" x2="-2.794" y2="1.27" width="0.1524" layer="21"/>
<wire x1="-2.794" y1="1.27" x2="-4.826" y2="1.27" width="0.1524" layer="21"/>
<wire x1="-4.826" y1="1.27" x2="-5.08" y2="1.016" width="0.1524" layer="21"/>
<wire x1="-5.08" y1="1.016" x2="-5.334" y2="1.27" width="0.1524" layer="21"/>
<wire x1="-5.334" y1="1.27" x2="-7.62" y2="1.27" width="0.1524" layer="21"/>
<wire x1="-6.604" y1="0.762" x2="-6.604" y2="0.508" width="0.1524" layer="51"/>
<wire x1="-6.604" y1="0.508" x2="-6.858" y2="0.508" width="0.1524" layer="51"/>
<wire x1="-6.858" y1="0.508" x2="-6.858" y2="-0.508" width="0.1524" layer="51"/>
<wire x1="-6.858" y1="-0.508" x2="-6.604" y2="-0.508" width="0.1524" layer="51"/>
<wire x1="-6.604" y1="-0.508" x2="-6.604" y2="-0.762" width="0.1524" layer="51"/>
<wire x1="-6.604" y1="-0.762" x2="-6.096" y2="-0.762" width="0.1524" layer="51"/>
<wire x1="-6.096" y1="-0.762" x2="-6.096" y2="-0.508" width="0.1524" layer="51"/>
<wire x1="-6.096" y1="-0.508" x2="-5.842" y2="-0.508" width="0.1524" layer="51"/>
<wire x1="-5.842" y1="-0.508" x2="-5.842" y2="0.508" width="0.1524" layer="51"/>
<wire x1="-5.842" y1="0.508" x2="-6.096" y2="0.508" width="0.1524" layer="51"/>
<wire x1="-6.096" y1="0.508" x2="-6.096" y2="0.762" width="0.1524" layer="51"/>
<wire x1="-6.096" y1="0.762" x2="-6.604" y2="0.762" width="0.1524" layer="51"/>
<wire x1="-4.064" y1="0.762" x2="-4.064" y2="0.508" width="0.1524" layer="51"/>
<wire x1="-4.064" y1="0.508" x2="-4.318" y2="0.508" width="0.1524" layer="51"/>
<wire x1="-4.318" y1="0.508" x2="-4.318" y2="-0.508" width="0.1524" layer="51"/>
<wire x1="-4.318" y1="-0.508" x2="-4.064" y2="-0.508" width="0.1524" layer="51"/>
<wire x1="-4.064" y1="-0.508" x2="-4.064" y2="-0.762" width="0.1524" layer="51"/>
<wire x1="-4.064" y1="-0.762" x2="-3.556" y2="-0.762" width="0.1524" layer="51"/>
<wire x1="-3.556" y1="-0.762" x2="-3.556" y2="-0.508" width="0.1524" layer="51"/>
<wire x1="-3.556" y1="-0.508" x2="-3.302" y2="-0.508" width="0.1524" layer="51"/>
<wire x1="-3.302" y1="-0.508" x2="-3.302" y2="0.508" width="0.1524" layer="51"/>
<wire x1="-3.302" y1="0.508" x2="-3.556" y2="0.508" width="0.1524" layer="51"/>
<wire x1="-3.556" y1="0.508" x2="-3.556" y2="0.762" width="0.1524" layer="51"/>
<wire x1="-3.556" y1="0.762" x2="-4.064" y2="0.762" width="0.1524" layer="51"/>
<wire x1="-1.524" y1="0.762" x2="-1.524" y2="0.508" width="0.1524" layer="51"/>
<wire x1="-1.524" y1="0.508" x2="-1.778" y2="0.508" width="0.1524" layer="51"/>
<wire x1="-1.778" y1="0.508" x2="-1.778" y2="-0.508" width="0.1524" layer="51"/>
<wire x1="-1.778" y1="-0.508" x2="-1.524" y2="-0.508" width="0.1524" layer="51"/>
<wire x1="-1.524" y1="-0.508" x2="-1.524" y2="-0.762" width="0.1524" layer="51"/>
<wire x1="-1.524" y1="-0.762" x2="-1.016" y2="-0.762" width="0.1524" layer="51"/>
<wire x1="-1.016" y1="-0.762" x2="-1.016" y2="-0.508" width="0.1524" layer="51"/>
<wire x1="-1.016" y1="-0.508" x2="-0.762" y2="-0.508" width="0.1524" layer="51"/>
<wire x1="-0.762" y1="-0.508" x2="-0.762" y2="0.508" width="0.1524" layer="51"/>
<wire x1="-0.762" y1="0.508" x2="-1.016" y2="0.508" width="0.1524" layer="51"/>
<wire x1="-1.016" y1="0.508" x2="-1.016" y2="0.762" width="0.1524" layer="51"/>
<wire x1="-1.016" y1="0.762" x2="-1.524" y2="0.762" width="0.1524" layer="51"/>
<wire x1="1.016" y1="0.762" x2="1.016" y2="0.508" width="0.1524" layer="51"/>
<wire x1="1.016" y1="0.508" x2="0.762" y2="0.508" width="0.1524" layer="51"/>
<wire x1="0.762" y1="0.508" x2="0.762" y2="-0.508" width="0.1524" layer="51"/>
<wire x1="0.762" y1="-0.508" x2="1.016" y2="-0.508" width="0.1524" layer="51"/>
<wire x1="1.016" y1="-0.508" x2="1.016" y2="-0.762" width="0.1524" layer="51"/>
<wire x1="1.016" y1="-0.762" x2="1.524" y2="-0.762" width="0.1524" layer="51"/>
<wire x1="1.524" y1="-0.762" x2="1.524" y2="-0.508" width="0.1524" layer="51"/>
<wire x1="1.524" y1="-0.508" x2="1.778" y2="-0.508" width="0.1524" layer="51"/>
<wire x1="1.778" y1="-0.508" x2="1.778" y2="0.508" width="0.1524" layer="51"/>
<wire x1="1.778" y1="0.508" x2="1.524" y2="0.508" width="0.1524" layer="51"/>
<wire x1="1.524" y1="0.508" x2="1.524" y2="0.762" width="0.1524" layer="51"/>
<wire x1="1.524" y1="0.762" x2="1.016" y2="0.762" width="0.1524" layer="51"/>
<wire x1="3.556" y1="0.762" x2="3.556" y2="0.508" width="0.1524" layer="51"/>
<wire x1="3.556" y1="0.508" x2="3.302" y2="0.508" width="0.1524" layer="51"/>
<wire x1="3.302" y1="0.508" x2="3.302" y2="-0.508" width="0.1524" layer="51"/>
<wire x1="3.302" y1="-0.508" x2="3.556" y2="-0.508" width="0.1524" layer="51"/>
<wire x1="3.556" y1="-0.508" x2="3.556" y2="-0.762" width="0.1524" layer="51"/>
<wire x1="3.556" y1="-0.762" x2="4.064" y2="-0.762" width="0.1524" layer="51"/>
<wire x1="4.064" y1="-0.762" x2="4.064" y2="-0.508" width="0.1524" layer="51"/>
<wire x1="4.064" y1="-0.508" x2="4.318" y2="-0.508" width="0.1524" layer="51"/>
<wire x1="4.318" y1="-0.508" x2="4.318" y2="0.508" width="0.1524" layer="51"/>
<wire x1="4.318" y1="0.508" x2="4.064" y2="0.508" width="0.1524" layer="51"/>
<wire x1="4.064" y1="0.508" x2="4.064" y2="0.762" width="0.1524" layer="51"/>
<wire x1="4.064" y1="0.762" x2="3.556" y2="0.762" width="0.1524" layer="51"/>
<wire x1="5.334" y1="1.27" x2="5.08" y2="1.016" width="0.1524" layer="21"/>
<wire x1="5.08" y1="1.016" x2="4.826" y2="1.27" width="0.1524" layer="21"/>
<wire x1="5.08" y1="-1.016" x2="5.334" y2="-1.27" width="0.1524" layer="21"/>
<wire x1="4.826" y1="-1.27" x2="5.08" y2="-1.016" width="0.1524" layer="21"/>
<wire x1="6.096" y1="0.762" x2="6.096" y2="0.508" width="0.1524" layer="51"/>
<wire x1="6.096" y1="0.508" x2="5.842" y2="0.508" width="0.1524" layer="51"/>
<wire x1="5.842" y1="0.508" x2="5.842" y2="-0.508" width="0.1524" layer="51"/>
<wire x1="5.842" y1="-0.508" x2="6.096" y2="-0.508" width="0.1524" layer="51"/>
<wire x1="6.096" y1="-0.508" x2="6.096" y2="-0.762" width="0.1524" layer="51"/>
<wire x1="6.096" y1="-0.762" x2="6.604" y2="-0.762" width="0.1524" layer="51"/>
<wire x1="6.604" y1="-0.762" x2="6.604" y2="-0.508" width="0.1524" layer="51"/>
<wire x1="6.604" y1="-0.508" x2="6.858" y2="-0.508" width="0.1524" layer="51"/>
<wire x1="6.858" y1="-0.508" x2="6.858" y2="0.508" width="0.1524" layer="51"/>
<wire x1="6.858" y1="0.508" x2="6.604" y2="0.508" width="0.1524" layer="51"/>
<wire x1="6.604" y1="0.508" x2="6.604" y2="0.762" width="0.1524" layer="51"/>
<wire x1="6.604" y1="0.762" x2="6.096" y2="0.762" width="0.1524" layer="51"/>
<pad name="1" x="-6.35" y="0" drill="0.8128" shape="long" rot="R90"/>
<pad name="2" x="-3.81" y="0" drill="0.8128" shape="long" rot="R90"/>
<pad name="3" x="-1.27" y="0" drill="0.8128" shape="long" rot="R90"/>
<pad name="4" x="1.27" y="0" drill="0.8128" shape="long" rot="R90"/>
<pad name="5" x="3.81" y="0" drill="0.8128" shape="long" rot="R90"/>
<pad name="6" x="6.35" y="0" drill="0.8128" shape="long" rot="R90"/>
<text x="-3.81" y="1.651" size="1.27" layer="25" ratio="10">&gt;NAME</text>
<text x="-6.858" y="1.524" size="1.27" layer="21" ratio="10">1</text>
<text x="-7.62" y="-2.921" size="1.27" layer="27" ratio="10">&gt;VALUE</text>
<text x="5.842" y="1.524" size="1.27" layer="21" ratio="10">6</text>
<rectangle x1="-6.477" y1="0.254" x2="-6.223" y2="0.762" layer="51"/>
<rectangle x1="-6.477" y1="-0.762" x2="-6.223" y2="-0.254" layer="51"/>
<rectangle x1="-3.937" y1="0.254" x2="-3.683" y2="0.762" layer="51"/>
<rectangle x1="-3.937" y1="-0.762" x2="-3.683" y2="-0.254" layer="51"/>
<rectangle x1="-1.397" y1="0.254" x2="-1.143" y2="0.762" layer="51"/>
<rectangle x1="-1.397" y1="-0.762" x2="-1.143" y2="-0.254" layer="51"/>
<rectangle x1="1.143" y1="0.254" x2="1.397" y2="0.762" layer="51"/>
<rectangle x1="1.143" y1="-0.762" x2="1.397" y2="-0.254" layer="51"/>
<rectangle x1="3.683" y1="0.254" x2="3.937" y2="0.762" layer="51"/>
<rectangle x1="3.683" y1="-0.762" x2="3.937" y2="-0.254" layer="51"/>
<rectangle x1="6.223" y1="0.254" x2="6.477" y2="0.762" layer="51"/>
<rectangle x1="6.223" y1="-0.762" x2="6.477" y2="-0.254" layer="51"/>
</package>
</packages>
</library>
<library name="led">
<description>&lt;b&gt;LEDs&lt;/b&gt;&lt;p&gt;
&lt;author&gt;Created by librarian@cadsoft.de&lt;/author&gt;&lt;br&gt;
Extended by Federico Battaglin &lt;author&gt;&amp;lt;federico.rd@fdpinternational.com&amp;gt;&lt;/author&gt; with DUOLED</description>
<packages>
<package name="SML0805">
<description>&lt;b&gt;SML0805-2CW-TR (0805 PROFILE)&lt;/b&gt; COOL WHITE&lt;p&gt;
Source: http://www.ledtronics.com/ds/smd-0603/Dstr0093.pdf</description>
<wire x1="-0.95" y1="-0.55" x2="0.95" y2="-0.55" width="0.1016" layer="51"/>
<wire x1="0.95" y1="-0.55" x2="0.95" y2="0.55" width="0.1016" layer="51"/>
<wire x1="0.95" y1="0.55" x2="-0.95" y2="0.55" width="0.1016" layer="51"/>
<wire x1="-0.95" y1="0.55" x2="-0.95" y2="-0.55" width="0.1016" layer="51"/>
<wire x1="-0.175" y1="-0.025" x2="0" y2="0.15" width="0.0634" layer="21"/>
<wire x1="0" y1="0.15" x2="0.15" y2="0" width="0.0634" layer="21"/>
<wire x1="0.15" y1="0" x2="-0.025" y2="-0.175" width="0.0634" layer="21"/>
<wire x1="-0.025" y1="-0.175" x2="-0.175" y2="-0.025" width="0.0634" layer="21"/>
<circle x="-0.275" y="0.4" radius="0.125" width="0" layer="21"/>
<smd name="C" x="-1.05" y="0" dx="1.2" dy="1.2" layer="1"/>
<smd name="A" x="1.05" y="0" dx="1.2" dy="1.2" layer="1"/>
<text x="-1.5" y="1" size="1.27" layer="25">&gt;NAME</text>
<text x="-1.5" y="-2" size="1.27" layer="27">&gt;VALUE</text>
</package>
</packages>
</library>
<library name="con-hirose">
<description>&lt;b&gt;Hirose Connectors&lt;/b&gt;&lt;p&gt;
www.hirose.co.jp&lt;p&gt;
Include : &lt;br&gt;
con-hirose-df12d(3.0)60dp0.5v80.lbr from Bob Starr &amp;lt;rtzaudio@mindspring.com&amp;gt;&lt;br&gt;
con-hirose.lbr from Bob Starr &amp;lt;rtzaudio@mindspring.com&amp;gt;&lt;br&gt;</description>
<packages>
<package name="UX60A-MB-5ST">
<description>&lt;b&gt;MINI USB Connector HI-SPEED Certified&lt;/b&gt; Metal Shield SMT Type Without Positioning Post&lt;p&gt;
Source: http://www.hirose.co.jp/cataloge_hp/e24000019.pdf</description>
<wire x1="-6.3509" y1="3.8059" x2="2.5511" y2="3.8059" width="0.1016" layer="21"/>
<wire x1="2.5511" y1="3.8059" x2="2.5511" y2="2.5442" width="0.1016" layer="21"/>
<wire x1="2.5511" y1="2.5442" x2="2.1866" y2="2.1797" width="0.1016" layer="21" curve="-90.031447"/>
<wire x1="2.1866" y1="2.1797" x2="1.6539" y2="2.1797" width="0.1016" layer="21"/>
<wire x1="1.6539" y1="2.1797" x2="1.2894" y2="1.8152" width="0.1016" layer="51" curve="90"/>
<wire x1="1.2894" y1="1.8152" x2="1.2894" y2="-1.8578" width="0.1016" layer="51"/>
<wire x1="1.2894" y1="-1.8578" x2="1.6118" y2="-2.1802" width="0.1016" layer="51" curve="90"/>
<wire x1="1.6118" y1="-2.1802" x2="2.2006" y2="-2.1802" width="0.1016" layer="21"/>
<wire x1="2.2006" y1="-2.1802" x2="2.5511" y2="-2.5307" width="0.1016" layer="21" curve="-90.032703"/>
<wire x1="2.5511" y1="-2.5307" x2="2.5511" y2="-3.8064" width="0.1016" layer="21"/>
<wire x1="2.5511" y1="-3.8064" x2="-2.7341" y2="-3.8064" width="0.1016" layer="21"/>
<wire x1="-2.7341" y1="-3.8064" x2="-6.3509" y2="-3.8064" width="0.1016" layer="21"/>
<wire x1="-6.3509" y1="-3.8064" x2="-6.3509" y2="3.8059" width="0.1016" layer="21"/>
<wire x1="2.5511" y1="-3.8064" x2="2.5511" y2="-4.7457" width="0.1016" layer="21"/>
<wire x1="2.5511" y1="-4.7457" x2="2.3968" y2="-4.8999" width="0.1016" layer="21" curve="-90.409919"/>
<wire x1="2.3968" y1="-4.8999" x2="2.3969" y2="-4.8999" width="0.1016" layer="21"/>
<wire x1="2.3969" y1="-4.8999" x2="2.2287" y2="-4.7317" width="0.1016" layer="21" curve="-90"/>
<wire x1="2.2287" y1="-4.7317" x2="2.2287" y2="-4.5775" width="0.1016" layer="21"/>
<wire x1="2.2287" y1="-4.5775" x2="2.0044" y2="-4.3532" width="0.1016" layer="21" curve="90.153471"/>
<wire x1="2.0044" y1="-4.3532" x2="1.9763" y2="-4.3532" width="0.1016" layer="21"/>
<wire x1="1.9763" y1="-4.3532" x2="1.752" y2="-4.5775" width="0.1016" layer="21" curve="90"/>
<wire x1="1.752" y1="-4.5775" x2="1.752" y2="-4.7457" width="0.1016" layer="21"/>
<wire x1="1.752" y1="-4.7457" x2="1.5978" y2="-4.8999" width="0.1016" layer="21" curve="-90"/>
<wire x1="1.5978" y1="-4.8999" x2="1.4296" y2="-4.7317" width="0.1016" layer="21" curve="-90"/>
<wire x1="1.4296" y1="-4.7317" x2="1.4296" y2="-3.8625" width="0.1016" layer="21"/>
<wire x1="-2.7341" y1="-3.8064" x2="-2.7341" y2="-4.7457" width="0.1016" layer="21"/>
<wire x1="-2.7341" y1="-4.7457" x2="-2.8884" y2="-4.8999" width="0.1016" layer="21" curve="-90.484765"/>
<wire x1="-2.8884" y1="-4.8999" x2="-2.8883" y2="-4.8999" width="0.1016" layer="21"/>
<wire x1="-2.8883" y1="-4.8999" x2="-3.0565" y2="-4.7317" width="0.1016" layer="21" curve="-90"/>
<wire x1="-3.0565" y1="-4.7317" x2="-3.0565" y2="-4.5775" width="0.1016" layer="21"/>
<wire x1="-3.0565" y1="-4.5775" x2="-3.2808" y2="-4.3532" width="0.1016" layer="21" curve="90.153471"/>
<wire x1="-3.2808" y1="-4.3532" x2="-3.3089" y2="-4.3532" width="0.1016" layer="21"/>
<wire x1="-3.3089" y1="-4.3532" x2="-3.5332" y2="-4.5775" width="0.1016" layer="21" curve="90.051111"/>
<wire x1="-3.5332" y1="-4.5775" x2="-3.5332" y2="-4.7457" width="0.1016" layer="21"/>
<wire x1="-3.5332" y1="-4.7457" x2="-3.6874" y2="-4.8999" width="0.1016" layer="21" curve="-90"/>
<wire x1="-3.6874" y1="-4.8999" x2="-3.8556" y2="-4.7317" width="0.1016" layer="21" curve="-90"/>
<wire x1="-3.8556" y1="-4.7317" x2="-3.8556" y2="-3.8625" width="0.1016" layer="21"/>
<wire x1="-3.8555" y1="3.8058" x2="-3.8555" y2="4.7451" width="0.1016" layer="21"/>
<wire x1="-3.8555" y1="4.7451" x2="-3.7012" y2="4.8993" width="0.1016" layer="21" curve="-90.484765"/>
<wire x1="-3.7012" y1="4.8993" x2="-3.7013" y2="4.8993" width="0.1016" layer="21"/>
<wire x1="-3.7013" y1="4.8993" x2="-3.5331" y2="4.7311" width="0.1016" layer="21" curve="-90"/>
<wire x1="-3.5331" y1="4.7311" x2="-3.5331" y2="4.5769" width="0.1016" layer="21"/>
<wire x1="-3.5331" y1="4.5769" x2="-3.3088" y2="4.3526" width="0.1016" layer="21" curve="90.102268"/>
<wire x1="-3.3088" y1="4.3526" x2="-3.2807" y2="4.3526" width="0.1016" layer="21"/>
<wire x1="-3.2807" y1="4.3526" x2="-3.0564" y2="4.5769" width="0.1016" layer="21" curve="90.102268"/>
<wire x1="-3.0564" y1="4.5769" x2="-3.0564" y2="4.7451" width="0.1016" layer="21"/>
<wire x1="-3.0564" y1="4.7451" x2="-2.9022" y2="4.8993" width="0.1016" layer="21" curve="-90"/>
<wire x1="-2.9022" y1="4.8993" x2="-2.734" y2="4.7311" width="0.1016" layer="21" curve="-90"/>
<wire x1="-2.734" y1="4.7311" x2="-2.734" y2="3.8619" width="0.1016" layer="21"/>
<wire x1="1.4297" y1="3.8058" x2="1.4297" y2="4.7451" width="0.1016" layer="21"/>
<wire x1="1.4297" y1="4.7451" x2="1.584" y2="4.8993" width="0.1016" layer="21" curve="-90.335171"/>
<wire x1="1.584" y1="4.8993" x2="1.5839" y2="4.8993" width="0.1016" layer="21"/>
<wire x1="1.5839" y1="4.8993" x2="1.7521" y2="4.7311" width="0.1016" layer="21" curve="-90"/>
<wire x1="1.7521" y1="4.7311" x2="1.7521" y2="4.5769" width="0.1016" layer="21"/>
<wire x1="1.7521" y1="4.5769" x2="1.9764" y2="4.3526" width="0.1016" layer="21" curve="90"/>
<wire x1="1.9764" y1="4.3526" x2="2.0045" y2="4.3526" width="0.1016" layer="21"/>
<wire x1="2.0045" y1="4.3526" x2="2.2288" y2="4.5769" width="0.1016" layer="21" curve="90.051111"/>
<wire x1="2.2288" y1="4.5769" x2="2.2288" y2="4.7451" width="0.1016" layer="21"/>
<wire x1="2.2288" y1="4.7451" x2="2.383" y2="4.8993" width="0.1016" layer="21" curve="-90"/>
<wire x1="2.383" y1="4.8993" x2="2.5512" y2="4.7311" width="0.1016" layer="21" curve="-90"/>
<wire x1="2.5512" y1="4.7311" x2="2.5512" y2="3.7918" width="0.1016" layer="21"/>
<wire x1="-5.1593" y1="3.7498" x2="-5.1593" y2="2.2077" width="0.1016" layer="21"/>
<wire x1="-5.1593" y1="2.2077" x2="-4.8088" y2="1.8572" width="0.1016" layer="21" curve="90.032703"/>
<wire x1="-4.8088" y1="1.8572" x2="-4.7668" y2="1.8572" width="0.1016" layer="21"/>
<wire x1="-4.7668" y1="1.8572" x2="-1.0938" y2="1.689" width="0.1016" layer="21"/>
<wire x1="-1.0938" y1="1.689" x2="-1.0798" y2="1.9834" width="0.1016" layer="21" curve="179.766458"/>
<wire x1="-1.0798" y1="1.9834" x2="-4.4724" y2="2.2077" width="0.1016" layer="21"/>
<wire x1="-4.4724" y1="2.2077" x2="-4.4584" y2="2.6984" width="0.1016" layer="21" curve="-175.705121"/>
<wire x1="-4.4584" y1="2.6984" x2="-1.0518" y2="2.9227" width="0.1016" layer="21"/>
<wire x1="-1.0518" y1="2.9227" x2="-0.9396" y2="3.0488" width="0.1016" layer="21" curve="89.143172"/>
<wire x1="-0.9396" y1="3.0488" x2="-0.9396" y2="3.7498" width="0.1016" layer="21"/>
<wire x1="-0.6452" y1="0.7497" x2="-0.9817" y2="1.0862" width="0.1016" layer="21" curve="89.931933"/>
<wire x1="-0.9817" y1="1.0862" x2="-5.0051" y2="1.2965" width="0.1016" layer="21"/>
<wire x1="-5.0051" y1="1.2965" x2="-5.0191" y2="1.0301" width="0.1016" layer="21" curve="180"/>
<wire x1="-5.0191" y1="1.0301" x2="-1.9069" y2="0.8619" width="0.1016" layer="21"/>
<wire x1="-1.9069" y1="0.8619" x2="-1.4723" y2="0.4273" width="0.1016" layer="21" curve="-90"/>
<wire x1="-1.4723" y1="0.4273" x2="-1.4723" y2="-0.4559" width="0.1016" layer="21"/>
<wire x1="-1.4723" y1="-0.4559" x2="-1.8929" y2="-0.8765" width="0.1016" layer="21" curve="-90"/>
<wire x1="-1.8929" y1="-0.8765" x2="-1.963" y2="-0.8765" width="0.1016" layer="21"/>
<wire x1="-1.963" y1="-0.8765" x2="-5.0051" y2="-1.0167" width="0.1016" layer="21"/>
<wire x1="-5.0051" y1="-1.0167" x2="-5.0051" y2="-1.297" width="0.1016" layer="21" curve="174.689178"/>
<wire x1="-5.0051" y1="-1.297" x2="-1.0097" y2="-1.0868" width="0.1016" layer="21"/>
<wire x1="-1.0097" y1="-1.0868" x2="-0.6452" y2="-0.7223" width="0.1016" layer="21" curve="90"/>
<wire x1="-0.6452" y1="-0.7223" x2="-0.6452" y2="0.7497" width="0.1016" layer="21"/>
<wire x1="-5.1592" y1="-3.7504" x2="-5.1592" y2="-2.2083" width="0.1016" layer="21"/>
<wire x1="-5.1592" y1="-2.2083" x2="-4.8087" y2="-1.8578" width="0.1016" layer="21" curve="-89.967316"/>
<wire x1="-4.8087" y1="-1.8578" x2="-4.7667" y2="-1.8578" width="0.1016" layer="21"/>
<wire x1="-4.7667" y1="-1.8578" x2="-1.0937" y2="-1.6896" width="0.1016" layer="21"/>
<wire x1="-1.0937" y1="-1.6896" x2="-1.0797" y2="-1.984" width="0.1016" layer="21" curve="-179.766458"/>
<wire x1="-1.0797" y1="-1.984" x2="-4.4723" y2="-2.2083" width="0.1016" layer="21"/>
<wire x1="-4.4723" y1="-2.2083" x2="-4.4583" y2="-2.699" width="0.1016" layer="21" curve="175.705121"/>
<wire x1="-4.4583" y1="-2.699" x2="-1.0517" y2="-2.9233" width="0.1016" layer="21"/>
<wire x1="-1.0517" y1="-2.9233" x2="-0.9395" y2="-3.0494" width="0.1016" layer="21" curve="-89.143172"/>
<wire x1="-0.9395" y1="-3.0494" x2="-0.9395" y2="-3.7504" width="0.1016" layer="21"/>
<smd name="M3" x="2" y="4.2" dx="2.2" dy="2.5" layer="1"/>
<smd name="M4" x="2" y="-4.2" dx="2.2" dy="2.5" layer="1"/>
<smd name="M2" x="-3.3" y="4.2" dx="2.2" dy="2.5" layer="1"/>
<smd name="M1" x="-3.3" y="-4.2" dx="2.2" dy="2.5" layer="1"/>
<smd name="1" x="2.25" y="1.6" dx="2" dy="0.5" layer="1"/>
<smd name="2" x="2.25" y="0.8" dx="2" dy="0.5" layer="1"/>
<smd name="3" x="2.25" y="0" dx="2" dy="0.5" layer="1"/>
<smd name="4" x="2.25" y="-0.8" dx="2" dy="0.5" layer="1"/>
<smd name="5" x="2.25" y="-1.6" dx="2" dy="0.5" layer="1"/>
<text x="5.08" y="-4.445" size="1.27" layer="25" rot="R90">&gt;NAME</text>
<text x="-4.445" y="-6.985" size="1.27" layer="27">&gt;VALUE</text>
<rectangle x1="1.3034" y1="1.4367" x2="2.6072" y2="1.7731" layer="51"/>
<rectangle x1="1.3034" y1="0.6376" x2="2.6072" y2="0.974" layer="51"/>
<rectangle x1="1.3034" y1="-0.1615" x2="2.6072" y2="0.1749" layer="51"/>
<rectangle x1="1.3034" y1="-0.9606" x2="2.6072" y2="-0.6242" layer="51"/>
<rectangle x1="1.3034" y1="-1.7596" x2="2.6072" y2="-1.4232" layer="51"/>
<rectangle x1="-6.4" y1="-3.85" x2="-4.425" y2="3.85" layer="41"/>
<rectangle x1="-2.175" y1="-3.85" x2="-0.45" y2="3.85" layer="41"/>
<rectangle x1="-4.425" y1="-2.925" x2="-2.175" y2="2.925" layer="41"/>
<rectangle x1="-0.45" y1="-1.85" x2="1.225" y2="1.85" layer="41"/>
</package>
</packages>
</library>
</libraries>
<attributes>
</attributes>
<variantdefs>
</variantdefs>
<classes>
<class number="0" name="default" width="0" drill="0">
</class>
</classes>
<designrules name="default">
<description language="de">&lt;b&gt;EAGLE Design Rules&lt;/b&gt;
&lt;p&gt;
Die Standard-Design-Rules sind so gewählt, dass sie für 
die meisten Anwendungen passen. Sollte ihre Platine 
besondere Anforderungen haben, treffen Sie die erforderlichen
Einstellungen hier und speichern die Design Rules unter 
einem neuen Namen ab.</description>
<description language="en">&lt;b&gt;EAGLE Design Rules&lt;/b&gt;
&lt;p&gt;
The default Design Rules have been set to cover
a wide range of applications. Your particular design
may have different requirements, so please make the
necessary adjustments and save your customized
design rules under a new name.</description>
<param name="layerSetup" value="(1*16)"/>
<param name="mtCopper" value="0.035mm 0.035mm 0.035mm 0.035mm 0.035mm 0.035mm 0.035mm 0.035mm 0.035mm 0.035mm 0.035mm 0.035mm 0.035mm 0.035mm 0.035mm 0.035mm"/>
<param name="mtIsolate" value="1.5mm 0.15mm 0.2mm 0.15mm 0.2mm 0.15mm 0.2mm 0.15mm 0.2mm 0.15mm 0.2mm 0.15mm 0.2mm 0.15mm 0.2mm"/>
<param name="mdWireWire" value="8mil"/>
<param name="mdWirePad" value="8mil"/>
<param name="mdWireVia" value="8mil"/>
<param name="mdPadPad" value="8mil"/>
<param name="mdPadVia" value="8mil"/>
<param name="mdViaVia" value="8mil"/>
<param name="mdSmdPad" value="8mil"/>
<param name="mdSmdVia" value="8mil"/>
<param name="mdSmdSmd" value="8mil"/>
<param name="mdViaViaSameLayer" value="8mil"/>
<param name="mnLayersViaInSmd" value="2"/>
<param name="mdCopperDimension" value="40mil"/>
<param name="mdDrill" value="8mil"/>
<param name="mdSmdStop" value="0mil"/>
<param name="msWidth" value="10mil"/>
<param name="msDrill" value="24mil"/>
<param name="msMicroVia" value="9.99mm"/>
<param name="msBlindViaRatio" value="0.5"/>
<param name="rvPadTop" value="0.25"/>
<param name="rvPadInner" value="0.25"/>
<param name="rvPadBottom" value="0.25"/>
<param name="rvViaOuter" value="0.25"/>
<param name="rvViaInner" value="0.25"/>
<param name="rvMicroViaOuter" value="0.25"/>
<param name="rvMicroViaInner" value="0.25"/>
<param name="rlMinPadTop" value="10mil"/>
<param name="rlMaxPadTop" value="20mil"/>
<param name="rlMinPadInner" value="10mil"/>
<param name="rlMaxPadInner" value="20mil"/>
<param name="rlMinPadBottom" value="10mil"/>
<param name="rlMaxPadBottom" value="20mil"/>
<param name="rlMinViaOuter" value="8mil"/>
<param name="rlMaxViaOuter" value="20mil"/>
<param name="rlMinViaInner" value="8mil"/>
<param name="rlMaxViaInner" value="20mil"/>
<param name="rlMinMicroViaOuter" value="4mil"/>
<param name="rlMaxMicroViaOuter" value="20mil"/>
<param name="rlMinMicroViaInner" value="4mil"/>
<param name="rlMaxMicroViaInner" value="20mil"/>
<param name="psTop" value="-1"/>
<param name="psBottom" value="-1"/>
<param name="psFirst" value="-1"/>
<param name="psElongationLong" value="100"/>
<param name="psElongationOffset" value="100"/>
<param name="mvStopFrame" value="1"/>
<param name="mvCreamFrame" value="0"/>
<param name="mlMinStopFrame" value="4mil"/>
<param name="mlMaxStopFrame" value="4mil"/>
<param name="mlMinCreamFrame" value="0mil"/>
<param name="mlMaxCreamFrame" value="0mil"/>
<param name="mlViaStopLimit" value="0mil"/>
<param name="srRoundness" value="0"/>
<param name="srMinRoundness" value="0mil"/>
<param name="srMaxRoundness" value="0mil"/>
<param name="slThermalIsolate" value="10mil"/>
<param name="slThermalsForVias" value="0"/>
<param name="dpMaxLengthDifference" value="10mm"/>
<param name="dpGapFactor" value="2.5"/>
<param name="checkGrid" value="0"/>
<param name="checkAngle" value="0"/>
<param name="checkFont" value="1"/>
<param name="checkRestrict" value="1"/>
<param name="useDiameter" value="13"/>
<param name="maxErrors" value="50"/>
</designrules>
<autorouter>
<pass name="Default">
<param name="RoutingGrid" value="50mil"/>
<param name="AutoGrid" value="1"/>
<param name="Efforts" value="0"/>
<param name="TopRouterVariant" value="1"/>
<param name="tpViaShape" value="round"/>
<param name="PrefDir.1" value="a"/>
<param name="PrefDir.2" value="0"/>
<param name="PrefDir.3" value="0"/>
<param name="PrefDir.4" value="0"/>
<param name="PrefDir.5" value="0"/>
<param name="PrefDir.6" value="0"/>
<param name="PrefDir.7" value="0"/>
<param name="PrefDir.8" value="0"/>
<param name="PrefDir.9" value="0"/>
<param name="PrefDir.10" value="0"/>
<param name="PrefDir.11" value="0"/>
<param name="PrefDir.12" value="0"/>
<param name="PrefDir.13" value="0"/>
<param name="PrefDir.14" value="0"/>
<param name="PrefDir.15" value="0"/>
<param name="PrefDir.16" value="a"/>
<param name="cfVia" value="8"/>
<param name="cfNonPref" value="5"/>
<param name="cfChangeDir" value="2"/>
<param name="cfOrthStep" value="2"/>
<param name="cfDiagStep" value="3"/>
<param name="cfExtdStep" value="0"/>
<param name="cfBonusStep" value="1"/>
<param name="cfMalusStep" value="1"/>
<param name="cfPadImpact" value="4"/>
<param name="cfSmdImpact" value="4"/>
<param name="cfBusImpact" value="0"/>
<param name="cfHugging" value="3"/>
<param name="cfAvoid" value="4"/>
<param name="cfPolygon" value="10"/>
<param name="cfBase.1" value="0"/>
<param name="cfBase.2" value="1"/>
<param name="cfBase.3" value="1"/>
<param name="cfBase.4" value="1"/>
<param name="cfBase.5" value="1"/>
<param name="cfBase.6" value="1"/>
<param name="cfBase.7" value="1"/>
<param name="cfBase.8" value="1"/>
<param name="cfBase.9" value="1"/>
<param name="cfBase.10" value="1"/>
<param name="cfBase.11" value="1"/>
<param name="cfBase.12" value="1"/>
<param name="cfBase.13" value="1"/>
<param name="cfBase.14" value="1"/>
<param name="cfBase.15" value="1"/>
<param name="cfBase.16" value="0"/>
<param name="mnVias" value="20"/>
<param name="mnSegments" value="9999"/>
<param name="mnExtdSteps" value="9999"/>
<param name="mnRipupLevel" value="10"/>
<param name="mnRipupSteps" value="100"/>
<param name="mnRipupTotal" value="100"/>
</pass>
<pass name="Follow-me" refer="Default" active="yes">
</pass>
<pass name="Busses" refer="Default" active="yes">
<param name="cfNonPref" value="4"/>
<param name="cfBusImpact" value="4"/>
<param name="cfHugging" value="0"/>
<param name="mnVias" value="0"/>
</pass>
<pass name="Route" refer="Default" active="yes">
</pass>
<pass name="Optimize1" refer="Default" active="yes">
<param name="cfVia" value="99"/>
<param name="cfExtdStep" value="10"/>
<param name="cfHugging" value="1"/>
<param name="mnExtdSteps" value="1"/>
<param name="mnRipupLevel" value="0"/>
</pass>
<pass name="Optimize2" refer="Optimize1" active="yes">
<param name="cfNonPref" value="0"/>
<param name="cfChangeDir" value="6"/>
<param name="cfExtdStep" value="0"/>
<param name="cfBonusStep" value="2"/>
<param name="cfMalusStep" value="2"/>
<param name="cfPadImpact" value="2"/>
<param name="cfSmdImpact" value="2"/>
<param name="cfHugging" value="0"/>
</pass>
<pass name="Optimize3" refer="Optimize2" active="yes">
<param name="cfChangeDir" value="8"/>
<param name="cfPadImpact" value="0"/>
<param name="cfSmdImpact" value="0"/>
</pass>
<pass name="Optimize4" refer="Optimize3" active="yes">
<param name="cfChangeDir" value="25"/>
</pass>
</autorouter>
<elements>
<element name="IC3" library="ftdichip" package="SSOP28" value="FT232RL" x="18.415" y="10.16" smashed="yes" rot="R180">
<attribute name="OC_FARNELL" value="1146032" x="18.415" y="10.16" size="1.778" layer="27" rot="R180" display="off"/>
<attribute name="MPN" value="FT232RL" x="18.415" y="10.16" size="1.778" layer="27" rot="R180" display="off"/>
<attribute name="MF" value="" x="18.415" y="10.16" size="1.778" layer="27" rot="R180" display="off"/>
<attribute name="OC_NEWARK" value="91K9918" x="18.415" y="10.16" size="1.778" layer="27" rot="R180" display="off"/>
<attribute name="NAME" x="12.939" y="10.0701" size="1.27" layer="25" rot="R90"/>
<attribute name="VALUE" x="22.3149" y="10.84" size="1.27" layer="27" rot="R180"/>
</element>
<element name="LED2" library="led" package="SML0805" value="" x="29.845" y="8.255" smashed="yes" rot="R90">
<attribute name="NAME" x="28.845" y="6.755" size="1.27" layer="25" rot="R90"/>
<attribute name="VALUE" x="31.845" y="6.755" size="1.27" layer="27" rot="R90"/>
</element>
<element name="LED3" library="led" package="SML0805" value="" x="33.655" y="8.255" smashed="yes" rot="R90">
<attribute name="NAME" x="32.655" y="6.755" size="1.27" layer="25" rot="R90"/>
<attribute name="VALUE" x="35.655" y="6.755" size="1.27" layer="27" rot="R90"/>
</element>
<element name="R3" library="rcl" package="R0805" value="470" x="29.845" y="12.7" smashed="yes" rot="R90">
<attribute name="NAME" x="28.575" y="12.065" size="1.27" layer="25" rot="R90"/>
<attribute name="VALUE" x="32.385" y="12.065" size="1.27" layer="27" rot="R90"/>
</element>
<element name="R4" library="rcl" package="R0805" value="470" x="33.655" y="12.7" smashed="yes" rot="R90">
<attribute name="NAME" x="32.385" y="12.065" size="1.27" layer="25" rot="R90"/>
<attribute name="VALUE" x="36.195" y="12.065" size="1.27" layer="27" rot="R90"/>
</element>
<element name="X1" library="con-hirose" package="UX60A-MB-5ST" value="MINI-USB-UX60A-MB-5ST" x="7.62" y="10.16" smashed="yes">
<attribute name="OC_FARNELL" value="unknown" x="7.62" y="10.16" size="1.778" layer="27" display="off"/>
<attribute name="MPN" value="" x="7.62" y="10.16" size="1.778" layer="27" display="off"/>
<attribute name="MF" value="" x="7.62" y="10.16" size="1.778" layer="27" display="off"/>
<attribute name="OC_NEWARK" value="unknown" x="7.62" y="10.16" size="1.778" layer="27" display="off"/>
<attribute name="NAME" x="5.715" y="14.605" size="1.27" layer="25"/>
<attribute name="VALUE" x="3.175" y="3.175" size="1.27" layer="27"/>
</element>
<element name="C6" library="rcl" package="C0805" value="0.1uF" x="26.035" y="10.16" smashed="yes" rot="R270">
<attribute name="NAME" x="25.4" y="7.62" size="1.27" layer="25" rot="R270"/>
<attribute name="VALUE" x="23.495" y="11.43" size="1.27" layer="27" rot="R270"/>
</element>
<element name="J4" library="con-lsta" package="FE06" value="FT232 Header" x="40.64" y="9.525" rot="R270">
<attribute name="OC_NEWARK" value="unknown" x="40.64" y="9.525" size="1.778" layer="27" rot="R270" display="off"/>
<attribute name="MF" value="" x="40.64" y="9.525" size="1.778" layer="27" rot="R270" display="off"/>
<attribute name="OC_FARNELL" value="unknown" x="40.64" y="9.525" size="1.778" layer="27" rot="R270" display="off"/>
<attribute name="MPN" value="" x="40.64" y="9.525" size="1.778" layer="27" rot="R270" display="off"/>
</element>
</elements>
<signals>
<signal name="USB_D-">
<contactref element="IC3" pad="15"/>
<wire x1="12.62763125" y1="10.96" x2="14.19" y2="9.39763125" width="0.254" layer="1"/>
<wire x1="14.19" y1="9.39763125" x2="14.19" y2="6.535" width="0.254" layer="1"/>
<contactref element="X1" pad="2"/>
<wire x1="9.87" y1="10.96" x2="12.62763125" y2="10.96" width="0" layer="19" extent="1-1"/>
</signal>
<signal name="USB_D+">
<contactref element="IC3" pad="16"/>
<wire x1="11.43" y1="10.16" x2="12.7" y2="8.89" width="0.254" layer="1"/>
<wire x1="12.7" y1="8.89" x2="12.7" y2="5.08" width="0.254" layer="1"/>
<wire x1="12.7" y1="5.08" x2="13.335" y2="4.445" width="0.254" layer="1"/>
<wire x1="13.335" y1="4.445" x2="14.1629125" y2="4.445" width="0.254" layer="1"/>
<wire x1="14.1629125" y1="4.445" x2="14.84" y2="5.1220875" width="0.254" layer="1"/>
<wire x1="14.84" y1="5.1220875" x2="14.84" y2="6.535" width="0.254" layer="1"/>
<contactref element="X1" pad="3"/>
<wire x1="11.43" y1="10.16" x2="9.87" y2="10.16" width="0" layer="19" extent="1-1"/>
</signal>
<signal name="N$4" class="1">
<contactref element="LED3" pad="A"/>
<contactref element="R4" pad="1"/>
<wire x1="33.655" y1="11.75" x2="33.655" y2="9.305" width="0.254" layer="1"/>
</signal>
<signal name="N$5" class="1">
<contactref element="LED2" pad="A"/>
<contactref element="R3" pad="1"/>
<wire x1="29.845" y1="11.75" x2="29.845" y2="9.305" width="0.254" layer="1"/>
</signal>
<signal name="FT232_GND">
<contactref element="J4" pad="6"/>
<wire x1="11.349371875" y1="8.56" x2="12.065" y2="7.844371875" width="0.254" layer="1"/>
<wire x1="12.065" y1="7.844371875" x2="12.065" y2="4.445" width="0.254" layer="1"/>
<wire x1="12.065" y1="4.445" x2="12.7" y2="3.81" width="0.254" layer="1"/>
<wire x1="12.7" y1="3.81" x2="33.655" y2="3.81" width="0.254" layer="1"/>
<wire x1="33.655" y1="3.81" x2="34.29" y2="3.175" width="0.254" layer="1"/>
<wire x1="34.29" y1="3.175" x2="40.64" y2="3.175" width="0.254" layer="1"/>
<wire x1="18.74" y1="15.565" x2="20.32" y2="17.145" width="0.254" layer="1"/>
<wire x1="20.32" y1="17.145" x2="42.545" y2="17.145" width="0.254" layer="1"/>
<wire x1="42.545" y1="17.145" x2="43.18" y2="16.51" width="0.254" layer="1"/>
<wire x1="43.18" y1="16.51" x2="43.18" y2="3.81" width="0.254" layer="1"/>
<wire x1="43.18" y1="3.81" x2="42.545" y2="3.175" width="0.254" layer="1"/>
<wire x1="42.545" y1="3.175" x2="40.64" y2="3.175" width="0.254" layer="1"/>
</signal>
<signal name="FT232_TX">
<contactref element="J4" pad="3"/>
<contactref element="IC3" pad="1"/>
<wire x1="40.64" y1="10.795" x2="38.735" y2="10.795" width="0.254" layer="1"/>
<wire x1="38.735" y1="10.795" x2="37.465" y2="12.065" width="0.254" layer="1"/>
<wire x1="37.465" y1="12.065" x2="37.465" y2="12.7" width="0.254" layer="1"/>
<wire x1="37.465" y1="12.7" x2="34.925" y2="15.24" width="0.254" layer="1"/>
<wire x1="34.925" y1="15.24" x2="22.86" y2="15.24" width="0.254" layer="1"/>
<wire x1="22.86" y1="15.24" x2="22.64" y2="15.02" width="0.254" layer="1"/>
<wire x1="22.64" y1="15.02" x2="22.64" y2="13.785" width="0.254" layer="1"/>
</signal>
<signal name="FT232_RX">
<contactref element="J4" pad="2"/>
<contactref element="IC3" pad="5"/>
<wire x1="40.64" y1="13.335" x2="38.1" y2="13.335" width="0.254" layer="1"/>
<wire x1="38.1" y1="13.335" x2="35.56" y2="15.875" width="0.254" layer="1"/>
<wire x1="35.56" y1="15.875" x2="20.955" y2="15.875" width="0.254" layer="1"/>
<wire x1="20.955" y1="15.875" x2="20.04" y2="14.96" width="0.254" layer="1"/>
<wire x1="20.04" y1="14.96" x2="20.04" y2="13.785" width="0.254" layer="1"/>
</signal>
<signal name="FT232_VCC">
<contactref element="J4" pad="4"/>
<wire x1="35.245" y1="13.65" x2="36.195" y2="12.7" width="0.254" layer="1"/>
<wire x1="36.195" y1="12.7" x2="36.195" y2="10.795" width="0.254" layer="1"/>
<wire x1="36.195" y1="10.795" x2="38.735" y2="8.255" width="0.254" layer="1"/>
<wire x1="38.735" y1="8.255" x2="40.64" y2="8.255" width="0.254" layer="1"/>
</signal>
<signal name="N$8">
<contactref element="LED2" pad="C"/>
<contactref element="IC3" pad="23"/>
<wire x1="29.845" y1="7.205" x2="29.845" y2="5.715" width="0.254" layer="1"/>
<wire x1="29.845" y1="5.715" x2="29.21" y2="5.08" width="0.254" layer="1"/>
<wire x1="29.21" y1="5.08" x2="19.685" y2="5.08" width="0.254" layer="1"/>
<wire x1="19.685" y1="5.08" x2="19.39" y2="5.375" width="0.254" layer="1"/>
<wire x1="19.39" y1="5.375" x2="19.39" y2="6.535" width="0.254" layer="1"/>
</signal>
<signal name="N$9">
<contactref element="LED3" pad="C"/>
<contactref element="IC3" pad="22"/>
<wire x1="33.655" y1="7.205" x2="33.655" y2="5.08" width="0.254" layer="1"/>
<wire x1="33.655" y1="5.08" x2="33.02" y2="4.445" width="0.254" layer="1"/>
<wire x1="33.02" y1="4.445" x2="19.05" y2="4.445" width="0.254" layer="1"/>
<wire x1="19.05" y1="4.445" x2="18.74" y2="4.755" width="0.254" layer="1"/>
<wire x1="18.74" y1="4.755" x2="18.74" y2="6.535" width="0.254" layer="1"/>
</signal>
<signal name="GND">
<contactref element="X1" pad="5"/>
<contactref element="IC3" pad="26"/>
<contactref element="IC3" pad="7"/>
<contactref element="IC3" pad="18"/>
<contactref element="IC3" pad="21"/>
<contactref element="IC3" pad="25"/>
<wire x1="21.34" y1="9.21" x2="20.69" y2="9.21" width="0.254" layer="1"/>
<wire x1="20.69" y1="9.21" x2="20.69" y2="6.535" width="0.254" layer="1"/>
<wire x1="20.69" y1="9.21" x2="19.101928125" y2="9.21" width="0.254" layer="1"/>
<wire x1="19.101928125" y1="9.21" x2="18.09" y2="8.198071875" width="0.254" layer="1"/>
<contactref element="C6" pad="2"/>
<wire x1="21.34" y1="9.21" x2="26.035" y2="9.21" width="0" layer="19" extent="1-1"/>
<wire x1="21.34" y1="6.535" x2="20.69" y2="6.535" width="0" layer="19" extent="1-1"/>
<wire x1="18.09" y1="6.535" x2="18.09" y2="8.198071875" width="0" layer="19" extent="1-1"/>
<wire x1="16.14" y1="6.535" x2="18.09" y2="6.535" width="0" layer="19" extent="1-1"/>
<wire x1="18.74" y1="13.785" x2="19.101928125" y2="9.21" width="0" layer="19" extent="1-1"/>
<wire x1="9.87" y1="8.56" x2="16.14" y2="6.535" width="0" layer="19" extent="1-1"/>
</signal>
<signal name="VCC">
<contactref element="X1" pad="1"/>
<contactref element="R3" pad="2"/>
<contactref element="R4" pad="2"/>
<contactref element="IC3" pad="20"/>
<contactref element="IC3" pad="4"/>
<contactref element="C6" pad="1"/>
<wire x1="29.845" y1="13.65" x2="33.655" y2="13.65" width="0" layer="19" extent="1-1"/>
<wire x1="26.035" y1="11.11" x2="29.845" y2="13.65" width="0" layer="19" extent="1-1"/>
<wire x1="20.69" y1="13.785" x2="26.035" y2="11.11" width="0" layer="19" extent="1-1"/>
<wire x1="17.44" y1="6.535" x2="20.69" y2="13.785" width="0" layer="19" extent="1-1"/>
<wire x1="9.87" y1="11.76" x2="17.44" y2="6.535" width="0" layer="19" extent="1-1"/>
</signal>
</signals>
</board>
</drawing>
</eagle>
